

==start rate========================

{"service_type_id":46,"rental_agreement_id":2583,"results":[{"id":736,"vehicle_type_id":20,"vehicle_type_name":"10 Passenger Van","vehicle_type_images":["https://manage.mylimobiz.com:443/Uploads/2061/VehicleTypes/20/61620150812_nri7LXw33Fl2PlbFNY3u.jpg"],"passenger_capacity":10,"luggage_capacity":10,"is_handicap_accessible":false,"has_optional_charges":false},{"id":735,"vehicle_type_id":15009,"vehicle_type_name":"6-Pax SUV","vehicle_type_images":["https://manage.mylimobiz.com:443/Uploads/2061/VehicleTypes/15009/61620153434_yEUg83Jwv6Xt0XMq04uH.jpg"],"passenger_capacity":6,"luggage_capacity":10,"is_handicap_accessible":false,"has_optional_charges":false},{"id":734,"vehicle_type_id":3,"vehicle_type_name":"8-Pax Stretch Limo","vehicle_type_images":["https://manage.mylimobiz.com:443/Uploads/2061/VehicleTypes/3/73201703943_sWNy51Cpp3Qm7QG361na.jpg"],"passenger_capacity":8,"luggage_capacity":4,"is_handicap_accessible":false,"has_optional_charges":false},{"id":733,"vehicle_type_id":6,"vehicle_type_name":"Mini Bus","vehicle_type_images":["https://manage.mylimobiz.com:443/Uploads/2061/VehicleTypes/6/73201703533_nr3Uly8KKfmIPlbFny37.jpg"],"passenger_capacity":36,"luggage_capacity":30,"is_handicap_accessible":false,"has_optional_charges":false},{"id":732,"vehicle_type_id":14,"vehicle_type_name":"Motor Coach","vehicle_type_images":["https://manage.mylimobiz.com:443/Uploads/2061/VehicleTypes/14/73201703032_t85Br11Qql6nv62l72PB.jpg"],"passenger_capacity":100,"luggage_capacity":100,"is_handicap_accessible":false,"has_optional_charges":false}]}

==end rate========================

Array
(
    [search_result_id] => 736
    [passengers] => Array
        (
            [0] => Array
                (
                    [account_number] => 12345
                    [first_name] => Jose
                    [last_name] => Pichardo
                    [company] => 
                    [phone] => +19548579129
                    [email] => jpichardo7@yahoo.com
                )

        )

    [applied_optional_rates] => Array
        (
            [0] => 1
            [1] => 2
        )

    [credit_card_info] => Array
        (
            [card_number] => 4242424242424242
            [expires_at] => 2020-04-01T18:41:11+03:00
            [billing_address] => Array
                (
                    [name] => Test Card
                    [postal_code] => 1209
                    [city] => 10, Dhaka
                    [address_line1] => 10, Dhaka
                )

        )

    [payment_type_id] => 51
)


==========================

{"id":67756813,"confirmation_number":"12974"}

==start rate========================

{"service_type_id":46,"rental_agreement_id":2583,"results":[{"id":776,"vehicle_type_id":20,"vehicle_type_name":"10 Passenger Van","vehicle_type_images":["https://manage.mylimobiz.com:443/Uploads/2061/VehicleTypes/20/61620150812_nri7LXw33Fl2PlbFNY3u.jpg"],"passenger_capacity":10,"luggage_capacity":10,"is_handicap_accessible":false,"has_optional_charges":false},{"id":775,"vehicle_type_id":15009,"vehicle_type_name":"6-Pax SUV","vehicle_type_images":["https://manage.mylimobiz.com:443/Uploads/2061/VehicleTypes/15009/61620153434_yEUg83Jwv6Xt0XMq04uH.jpg"],"passenger_capacity":6,"luggage_capacity":10,"is_handicap_accessible":false,"has_optional_charges":false},{"id":774,"vehicle_type_id":3,"vehicle_type_name":"8-Pax Stretch Limo","vehicle_type_images":["https://manage.mylimobiz.com:443/Uploads/2061/VehicleTypes/3/73201703943_sWNy51Cpp3Qm7QG361na.jpg"],"passenger_capacity":8,"luggage_capacity":4,"is_handicap_accessible":false,"has_optional_charges":false},{"id":773,"vehicle_type_id":6,"vehicle_type_name":"Mini Bus","vehicle_type_images":["https://manage.mylimobiz.com:443/Uploads/2061/VehicleTypes/6/73201703533_nr3Uly8KKfmIPlbFny37.jpg"],"passenger_capacity":36,"luggage_capacity":30,"is_handicap_accessible":false,"has_optional_charges":false},{"id":772,"vehicle_type_id":14,"vehicle_type_name":"Motor Coach","vehicle_type_images":["https://manage.mylimobiz.com:443/Uploads/2061/VehicleTypes/14/73201703032_t85Br11Qql6nv62l72PB.jpg"],"passenger_capacity":100,"luggage_capacity":100,"is_handicap_accessible":false,"has_optional_charges":false}]}

==end rate========================

Array
(
    [search_result_id] => 776
    [passengers] => Array
        (
            [0] => Array
                (
                    [account_number] => 12345
                    [first_name] => Jose
                    [last_name] => Pichardo
                    [company] => 
                    [phone] => +19548579129
                    [email] => jpichardo7@yahoo.com
                )

        )

    [applied_optional_rates] => Array
        (
            [0] => 1
            [1] => 2
        )

    [credit_card_info] => Array
        (
            [card_number] => 4242424242424242
            [expires_at] => 2020-06-01T18:41:11+03:00
            [billing_address] => Array
                (
                    [name] => Test Name
                    [postal_code] => 1216
                    [city] => this is address
                    [address_line1] => this is address
                )

        )

    [payment_type_id] => 51
)


==========================

{"id":67771212,"confirmation_number":"12986"}

==start rate_lookup request ========================

Array
(
    [passenger_count] => 3
    [luggage_count] => 2
    [service_type_id] => 46
    [vehicle_types] => the_vehicle_types
    [pickup] => Array
        (
            [type] => address
            [scheduled_arriving_at] => 03:00:00
            [instructions] => 
            [address] => Array
                (
                    [name] => 
                    [country_code] => 
                    [state_code] => 
                    [postal_code] => 
                    [county] => 
                    [city] => 
                    [address_line1] => Miami International Airport(KMIA)(Miami)
                    [address_line2] => 
                )

        )

    [dropoff] => Array
        (
            [type] => address
            [instructions] => 
            [address] => Array
                (
                    [name] => 
                    [country_code] => 
                    [state_code] => 
                    [postal_code] => 
                    [county] => 
                    [city] => 
                    [address_line1] => 501 East, East Camino Real, Boca Raton, FL, United States
                    [address_line2] => 
                )

        )

    [scheduled_pickup_at] => 2017-12-18T03:00:00-06:00
)


==end rate_lookup request ==========================

==start rate_lookup response ========================

{"service_type_id":46,"rental_agreement_id":2583,"results":[{"id":870,"vehicle_type_id":15009,"vehicle_type_name":"6-Pax SUV","vehicle_type_images":["https://manage.mylimobiz.com:443/Uploads/2061/VehicleTypes/15009/61620153434_yEUg83Jwv6Xt0XMq04uH.jpg"],"passenger_capacity":6,"luggage_capacity":10,"is_handicap_accessible":false,"has_optional_charges":false}]}

==end rate_lookup response ==========================

==== bookings request ====

Array
(
    [search_result_id] => 870
    [passengers] => Array
        (
            [0] => Array
                (
                    [account_number] => 974
                    [first_name] => Jose
                    [last_name] => Pichardo
                    [company] => 
                    [phone] => +19548579129
                    [email] => jpichardo7@yahoo.com
                )

        )

    [applied_optional_rates] => Array
        (
            [0] => 1
            [1] => 2
        )

    [credit_card_info] => Array
        (
            [card_number] => 5555555555554444
            [expires_at] => 2021-03-01T18:41:11+03:00
            [billing_address] => Array
                (
                    [name] => Test Card
                    [postal_code] => 22222
                    [city] => 10, Dhaka
                    [address_line1] => 10, Dhaka
                )

        )

    [payment_type_id] => 51
)


==========================

{"id":67930057,"confirmation_number":"13010"}

==start rate_lookup request ========================

Array
(
    [passenger_count] => 3
    [luggage_count] => 2
    [service_type_id] => 46
    [vehicle_types] => the_vehicle_types
    [pickup] => Array
        (
            [type] => address
            [scheduled_arriving_at] => 03:00:00
            [instructions] => 
            [address] => Array
                (
                    [name] => 
                    [country_code] => 
                    [state_code] => 
                    [postal_code] => 
                    [county] => 
                    [city] => 
                    [address_line1] => Miami International Airport(KMIA)(Miami)
                    [address_line2] => 
                )

        )

    [dropoff] => Array
        (
            [type] => address
            [instructions] => 
            [address] => Array
                (
                    [name] => 
                    [country_code] => 
                    [state_code] => 
                    [postal_code] => 
                    [county] => 
                    [city] => 
                    [address_line1] => 501 East, East Camino Real, Boca Raton, FL, United States
                    [address_line2] => 
                )

        )

    [scheduled_pickup_at] => 2017-12-18T03:00:00-06:00
)


==end rate_lookup request ==========================

==start rate_lookup response ========================

{"service_type_id":46,"rental_agreement_id":2583,"results":[{"id":871,"vehicle_type_id":15009,"vehicle_type_name":"6-Pax SUV","vehicle_type_images":["https://manage.mylimobiz.com:443/Uploads/2061/VehicleTypes/15009/61620153434_yEUg83Jwv6Xt0XMq04uH.jpg"],"passenger_capacity":6,"luggage_capacity":10,"is_handicap_accessible":false,"has_optional_charges":false}]}

==end rate_lookup response ==========================

==== bookings request ====

Array
(
    [search_result_id] => 871
    [passengers] => Array
        (
            [0] => Array
                (
                    [account_number] => 974
                    [first_name] => Jose
                    [last_name] => Pichardo
                    [company] => 
                    [phone] => +19548579129
                    [email] => jpichardo7@yahoo.com
                )

        )

    [applied_optional_rates] => Array
        (
            [0] => 1
            [1] => 2
        )

    [credit_card_info] => Array
        (
            [card_number] => 5555555555554444
            [expires_at] => 2021-03-01T18:41:11+03:00
            [billing_address] => Array
                (
                    [name] => Test Card
                    [postal_code] => 22222
                    [city] => 10, Dhaka
                    [address_line1] => 10, Dhaka
                )

        )

    [payment_type_id] => 51
)


==========================

{"id":67931603,"confirmation_number":"13011"}

==start rate_lookup request ========================

Array
(
    [passenger_count] => 2
    [luggage_count] => 3
    [service_type_id] => 46
    [vehicle_types] => the_vehicle_types
    [pickup] => Array
        (
            [type] => address
            [scheduled_arriving_at] => 13:00:00
            [instructions] => 
            [address] => Array
                (
                    [name] => 
                    [country_code] => 
                    [state_code] => 
                    [postal_code] => 
                    [county] => 
                    [city] => 
                    [address_line1] => Miami International Airport(KMIA)(Miami)
                    [address_line2] => 
                )

        )

    [dropoff] => Array
        (
            [type] => address
            [instructions] => 
            [address] => Array
                (
                    [name] => 
                    [country_code] => 
                    [state_code] => 
                    [postal_code] => 
                    [county] => 
                    [city] => 
                    [address_line1] => 501 E Camino Real, Boca Raton, FL, United States
                    [address_line2] => 
                )

        )

    [scheduled_pickup_at] => 2017-12-27T13:00:00-06:00
)


==end rate_lookup request ==========================

==start rate_lookup response ========================

{"service_type_id":46,"rental_agreement_id":2583,"results":[{"id":872,"vehicle_type_id":3,"vehicle_type_name":"8-Pax Stretch Limo","vehicle_type_images":["https://manage.mylimobiz.com:443/Uploads/2061/VehicleTypes/3/73201703943_sWNy51Cpp3Qm7QG361na.jpg"],"passenger_capacity":8,"luggage_capacity":4,"is_handicap_accessible":false,"has_optional_charges":false}]}

==end rate_lookup response ==========================

==== bookings request ====

Array
(
    [search_result_id] => 872
    [passengers] => Array
        (
            [0] => Array
                (
                    [account_number] => 974
                    [first_name] => Shahinur
                    [last_name] => Rahman
                    [company] => 
                    [phone] => +1
                    [email] => jpichardo7@yahoo.com
                )

        )

    [applied_optional_rates] => Array
        (
            [0] => 1
            [1] => 2
        )

    [credit_card_info] => Array
        (
            [card_number] => 4242424242424242
            [expires_at] => 2022-05-01T18:41:11+03:00
            [billing_address] => Array
                (
                    [name] => Shahinur Rahman
                    [postal_code] => 33112
                    [city] => 1234 my street, miami fl
                    [address_line1] => 1234 my street, miami fl
                )

        )

    [payment_type_id] => 51
)


==========================

{"model_state":{"request.Passengers[0].Phone":["The value must be a string with a existing phone number in E.164 format."]},"reason_phrase":"Bad Request","message":"The request is invalid.","correlation_id":"d4a8e14bd5694cb8a3b6ef993f213622"}

==start rate_lookup request ========================

Array
(
    [passenger_count] => 2
    [luggage_count] => 3
    [service_type_id] => 46
    [vehicle_types] => the_vehicle_types
    [pickup] => Array
        (
            [type] => address
            [scheduled_arriving_at] => 13:00:00
            [instructions] => 
            [address] => Array
                (
                    [name] => 
                    [country_code] => 
                    [state_code] => 
                    [postal_code] => 
                    [county] => 
                    [city] => 
                    [address_line1] => Miami International Airport(KMIA)(Miami)
                    [address_line2] => 
                )

        )

    [dropoff] => Array
        (
            [type] => address
            [instructions] => 
            [address] => Array
                (
                    [name] => 
                    [country_code] => 
                    [state_code] => 
                    [postal_code] => 
                    [county] => 
                    [city] => 
                    [address_line1] => 501 E Camino Real, Boca Raton, FL, United States
                    [address_line2] => 
                )

        )

    [scheduled_pickup_at] => 2017-12-27T13:00:00-06:00
)


==end rate_lookup request ==========================

==start rate_lookup response ========================

{"service_type_id":46,"rental_agreement_id":2583,"results":[{"id":872,"vehicle_type_id":3,"vehicle_type_name":"8-Pax Stretch Limo","vehicle_type_images":["https://manage.mylimobiz.com:443/Uploads/2061/VehicleTypes/3/73201703943_sWNy51Cpp3Qm7QG361na.jpg"],"passenger_capacity":8,"luggage_capacity":4,"is_handicap_accessible":false,"has_optional_charges":false}]}

==end rate_lookup response ==========================

==== bookings request ====

Array
(
    [search_result_id] => 872
    [passengers] => Array
        (
            [0] => Array
                (
                    [account_number] => 1016
                    [first_name] => Shahinur
                    [last_name] => Rahman
                    [company] => 
                    [phone] => +1
                    [email] => 
                )

        )

    [applied_optional_rates] => Array
        (
            [0] => 1
            [1] => 2
        )

    [credit_card_info] => Array
        (
            [card_number] => 4242424242424242
            [expires_at] => 2021-03-01T18:41:11+03:00
            [billing_address] => Array
                (
                    [name] => j pichardo
                    [postal_code] => 33111
                    [city] => 10, Dhaka
                    [address_line1] => 10, Dhaka
                )

        )

    [payment_type_id] => 51
)


==========================

{"model_state":{"request.Passengers[0].Phone":["The value must be a string with a existing phone number in E.164 format."]},"reason_phrase":"Bad Request","message":"The request is invalid.","correlation_id":"9115332994e946c09829003a9b88d901"}

--------------------------------------------------------------------------------------------------

== start $_GET ========================

Array
(
)


== end $_GET ==========================

== start $_POST ========================

Array
(
    [action] => passengerReservation
    [jurneyDetail] => {"action":"getHourlyRate","pickuplocation":"335 Tresser Boulevard, Stamford, CT, United States","dropoff_location":"335 Tresser Boulevard, Stamford, CT, United States","pickup_date":"12/30/2017","pickup_time":"10:00 PM","limo_any_where_api_key":"MCfamaNJ0ticn2OPK10C","limo_any_where_api_id":"aWSgQTEJAMWbf10","user_id":"22","total_passenger":"2","serviceType":"HRLY","stopAddtress":"1800 East Putnam Avenue, Old Greenwich, CT, United States","isLocationPut":"yes","ismeetGreetUpdateChecked":"no","iscurbsideUpdateChecked":"no","interNationFlightChecked":"no","current_date":"012/27/2017","passenger_id":"","totalLuggage":3}
    [firstName] => 
    [lastName] => 
    [passengerMobileNumber] => 
    [passengerEmailName] => 
    [service_name] => 
    [service_number] => 
    [service_from] => 
    [service_note] => 
    [numberOfPassengerInput] => 
    [bookingInfo] => {"AllRateJson":[{"vehicle_title":"Hourly base rate","baseRate":"120.00"},{"vehicle_title":"Estimated Tolls","baseRate":"NaN"},{"vehicle_title":"Driver Gratuty","baseRate":"12.00"},{"vehicle_title":"Administrative Fees","baseRate":"1.00"},{"vehicle_title":"Tax","baseRate":"1.20"},{"vehicle_title":"Black Car Fund","baseRate":"1.20"},{"vehicle_title":"Fuel Surcharge","baseRate":"1.20"},{"vehicle_title":"STC","baseRate":"1.20"},{"vehicle_title":"Reserve","baseRate":"1.00"},{"vehicle_title":"CT sub-total fee","baseRate":"1.00"},{"vehicle_title":"CT total item fee","baseRate":"1.45"},{"vehicle_title":"cb","baseRate":"2.40"}],"vehicleLuggageCapacity":"4","vehiclePassengerCapacity":"3","vehicleTitle":"3-Pax sedan","fullTotalAmount":"147.85","pickuplocation":"335 Tresser Boulevard, Stamford, CT, United States","dropupaddress":"335 Tresser Boulevard, Stamford, CT, United States","numberOfPasenger":"2","childValueStorhere":"","jurneyDate":"12/30/2017","jurneyTime":"10:00 PM","vehicle_code":"SED","updateVehicleInfoservices":"HRLY"}
    [grandTotal] => 147.85
    [cardTotalValue] => Array
        (
            [payment_type] => CASH
            [cardNumber] => 5555555555554444
            [cardMonth] => 06
            [cardYear] => 21
            [cardHolderName] => Test Card
            [cardHolderAddress] => 10, Dhaka
            [cardHolderZipCode] => 22222
            [cardccvNumber] => 123
        )

    [refrenceNo] => 
    [otherComment] => 
    [grpname] => 
    [childSeatValue] => 0
    [specialPackage] => 0
    [specialPackageDiscount] => 0
    [extrachildSheet] => 
    [paymentType] => CASH
)


== end $_POST ==========================

== start $_REQUEST ========================

Array
(
    [action] => passengerReservation
    [jurneyDetail] => {"action":"getHourlyRate","pickuplocation":"335 Tresser Boulevard, Stamford, CT, United States","dropoff_location":"335 Tresser Boulevard, Stamford, CT, United States","pickup_date":"12/30/2017","pickup_time":"10:00 PM","limo_any_where_api_key":"MCfamaNJ0ticn2OPK10C","limo_any_where_api_id":"aWSgQTEJAMWbf10","user_id":"22","total_passenger":"2","serviceType":"HRLY","stopAddtress":"1800 East Putnam Avenue, Old Greenwich, CT, United States","isLocationPut":"yes","ismeetGreetUpdateChecked":"no","iscurbsideUpdateChecked":"no","interNationFlightChecked":"no","current_date":"012/27/2017","passenger_id":"","totalLuggage":3}
    [firstName] => 
    [lastName] => 
    [passengerMobileNumber] => 
    [passengerEmailName] => 
    [service_name] => 
    [service_number] => 
    [service_from] => 
    [service_note] => 
    [numberOfPassengerInput] => 
    [bookingInfo] => {"AllRateJson":[{"vehicle_title":"Hourly base rate","baseRate":"120.00"},{"vehicle_title":"Estimated Tolls","baseRate":"NaN"},{"vehicle_title":"Driver Gratuty","baseRate":"12.00"},{"vehicle_title":"Administrative Fees","baseRate":"1.00"},{"vehicle_title":"Tax","baseRate":"1.20"},{"vehicle_title":"Black Car Fund","baseRate":"1.20"},{"vehicle_title":"Fuel Surcharge","baseRate":"1.20"},{"vehicle_title":"STC","baseRate":"1.20"},{"vehicle_title":"Reserve","baseRate":"1.00"},{"vehicle_title":"CT sub-total fee","baseRate":"1.00"},{"vehicle_title":"CT total item fee","baseRate":"1.45"},{"vehicle_title":"cb","baseRate":"2.40"}],"vehicleLuggageCapacity":"4","vehiclePassengerCapacity":"3","vehicleTitle":"3-Pax sedan","fullTotalAmount":"147.85","pickuplocation":"335 Tresser Boulevard, Stamford, CT, United States","dropupaddress":"335 Tresser Boulevard, Stamford, CT, United States","numberOfPasenger":"2","childValueStorhere":"","jurneyDate":"12/30/2017","jurneyTime":"10:00 PM","vehicle_code":"SED","updateVehicleInfoservices":"HRLY"}
    [grandTotal] => 147.85
    [cardTotalValue] => Array
        (
            [payment_type] => CASH
            [cardNumber] => 5555555555554444
            [cardMonth] => 06
            [cardYear] => 21
            [cardHolderName] => Test Card
            [cardHolderAddress] => 10, Dhaka
            [cardHolderZipCode] => 22222
            [cardccvNumber] => 123
        )

    [refrenceNo] => 
    [otherComment] => 
    [grpname] => 
    [childSeatValue] => 0
    [specialPackage] => 0
    [specialPackageDiscount] => 0
    [extrachildSheet] => 
    [paymentType] => CASH
    [__stripe_mid] => 50871af8-0737-48ed-b610-3f8fac9fbd9e
    [__stripe_sid] => fb3c6476-0cc9-498c-8b1e-601f0b1f71fa
)


== end $_REQUEST ==========================

==start rate_lookup request ========================-------------------------------------------------

{"passenger_count":"2","luggage_count":3,"service_type_id":12620,"vehicle_types":[ 1 ],"pickup":{"type":"address","address":{"address_line1":"335 Tresser Boulevard, Stamford, CT, United States"}},"dropoff":{"type":"address","address":{"address_line1":"335 Tresser Boulevard, Stamford, CT, United States"}},"scheduled_pickup_at":"2017-12-30T22:00:00-06:00","stops":[{"type":"address","instructions":"","address":{"address_line1":"1800 East Putnam Avenue, Old Greenwich, CT, United States","address_line2":""}}]}

==end rate_lookup request ==========================

==start rate_lookup response ========================

{"service_type_id":12620,"rental_agreement_id":2583,"results":[{"id":927,"vehicle_type_id":1,"vehicle_type_name":"3-Pax sedan","vehicle_type_images":["https://manage.mylimobiz.com:443/Uploads/2061/VehicleTypes/1/616201501426_hLCo2SQ118G03FU8HSdo.jpg"],"passenger_capacity":3,"luggage_capacity":4,"is_handicap_accessible":false,"has_optional_charges":false}]}

==end rate_lookup response ==========================

==== bookings request ====

Array
(
    [search_result_id] => 927
    [passengers] => Array
        (
            [0] => Array
                (
                    [account_number] => 1016
                    [first_name] => 
                    [last_name] => 
                    [company] => 
                    [phone] => +1
                    [email] => 
                )

        )

    [applied_optional_rates] => Array
        (
            [0] => 1
            [1] => 2
        )

    [credit_card_info] => Array
        (
            [card_number] => 5555555555554444
            [expires_at] => 2021-06-01T18:41:11+03:00
            [billing_address] => Array
                (
                    [name] => Test Card
                    [postal_code] => 22222
                    [city] => 10, Dhaka
                    [address_line1] => 10, Dhaka
                )

        )

    [payment_type_id] => 51
)


==========================

{"model_state":{"request.Passengers[0].FirstName":["The FirstName field is required."],"request.Passengers[0].Phone":["The value must be a string with a existing phone number in E.164 format."]},"reason_phrase":"Bad Request","message":"The request is invalid.","correlation_id":"22897dcae8d040b296bd6b971f62a6c5"}

--------------------------------------------------------------------------------------------------

== start $_GET ========================

Array
(
)


== end $_GET ==========================

== start $_POST ========================

Array
(
    [action] => passengerReservation
    [jurneyDetail] => {"action":"getHourlyRate","pickuplocation":"335 Tresser Boulevard, Stamford, CT, United States","dropoff_location":"335 Tresser Boulevard, Stamford, CT, United States","pickup_date":"12/30/2017","pickup_time":"10:00 PM","limo_any_where_api_key":"MCfamaNJ0ticn2OPK10C","limo_any_where_api_id":"aWSgQTEJAMWbf10","user_id":"22","total_passenger":"2","serviceType":"HRLY","stopAddtress":"1800 East Putnam Avenue, Old Greenwich, CT, United States","isLocationPut":"yes","ismeetGreetUpdateChecked":"no","iscurbsideUpdateChecked":"no","interNationFlightChecked":"no","current_date":"012/27/2017","passenger_id":"","totalLuggage":3}
    [firstName] => Jose
    [lastName] => Pichardo
    [passengerMobileNumber] => 954 8579129
    [passengerEmailName] => jpichardo7@yahoo.com
    [service_name] => 
    [service_number] => 
    [service_from] => 
    [service_note] => 
    [numberOfPassengerInput] => 
    [bookingInfo] => {"AllRateJson":[{"vehicle_title":"Hourly base rate","baseRate":"120.00"},{"vehicle_title":"Estimated Tolls","baseRate":"NaN"},{"vehicle_title":"Driver Gratuty","baseRate":"12.00"},{"vehicle_title":"Administrative Fees","baseRate":"1.00"},{"vehicle_title":"Tax","baseRate":"1.20"},{"vehicle_title":"Black Car Fund","baseRate":"1.20"},{"vehicle_title":"Fuel Surcharge","baseRate":"1.20"},{"vehicle_title":"STC","baseRate":"1.20"},{"vehicle_title":"Reserve","baseRate":"1.00"},{"vehicle_title":"CT sub-total fee","baseRate":"1.00"},{"vehicle_title":"CT total item fee","baseRate":"1.45"},{"vehicle_title":"cb","baseRate":"2.40"}],"vehicleLuggageCapacity":"4","vehiclePassengerCapacity":"3","vehicleTitle":"3-Pax sedan","fullTotalAmount":"147.85","pickuplocation":"335 Tresser Boulevard, Stamford, CT, United States","dropupaddress":"335 Tresser Boulevard, Stamford, CT, United States","numberOfPasenger":"2","childValueStorhere":"","jurneyDate":"12/30/2017","jurneyTime":"10:00 PM","vehicle_code":"SED","updateVehicleInfoservices":"HRLY"}
    [grandTotal] => 147.85
    [cardTotalValue] => Array
        (
            [payment_type] => CASH
            [cardNumber] => 5555555555554444
            [cardMonth] => 06
            [cardYear] => 21
            [cardHolderName] => Test Card
            [cardHolderAddress] => 10, Dhaka
            [cardHolderZipCode] => 22222
            [cardccvNumber] => 123
        )

    [refrenceNo] => 
    [otherComment] => 
    [grpname] => 
    [childSeatValue] => 0
    [specialPackage] => 0
    [specialPackageDiscount] => 0
    [extrachildSheet] => 
    [paymentType] => CASH
)


== end $_POST ==========================

== start $_REQUEST ========================

Array
(
    [action] => passengerReservation
    [jurneyDetail] => {"action":"getHourlyRate","pickuplocation":"335 Tresser Boulevard, Stamford, CT, United States","dropoff_location":"335 Tresser Boulevard, Stamford, CT, United States","pickup_date":"12/30/2017","pickup_time":"10:00 PM","limo_any_where_api_key":"MCfamaNJ0ticn2OPK10C","limo_any_where_api_id":"aWSgQTEJAMWbf10","user_id":"22","total_passenger":"2","serviceType":"HRLY","stopAddtress":"1800 East Putnam Avenue, Old Greenwich, CT, United States","isLocationPut":"yes","ismeetGreetUpdateChecked":"no","iscurbsideUpdateChecked":"no","interNationFlightChecked":"no","current_date":"012/27/2017","passenger_id":"","totalLuggage":3}
    [firstName] => Jose
    [lastName] => Pichardo
    [passengerMobileNumber] => 954 8579129
    [passengerEmailName] => jpichardo7@yahoo.com
    [service_name] => 
    [service_number] => 
    [service_from] => 
    [service_note] => 
    [numberOfPassengerInput] => 
    [bookingInfo] => {"AllRateJson":[{"vehicle_title":"Hourly base rate","baseRate":"120.00"},{"vehicle_title":"Estimated Tolls","baseRate":"NaN"},{"vehicle_title":"Driver Gratuty","baseRate":"12.00"},{"vehicle_title":"Administrative Fees","baseRate":"1.00"},{"vehicle_title":"Tax","baseRate":"1.20"},{"vehicle_title":"Black Car Fund","baseRate":"1.20"},{"vehicle_title":"Fuel Surcharge","baseRate":"1.20"},{"vehicle_title":"STC","baseRate":"1.20"},{"vehicle_title":"Reserve","baseRate":"1.00"},{"vehicle_title":"CT sub-total fee","baseRate":"1.00"},{"vehicle_title":"CT total item fee","baseRate":"1.45"},{"vehicle_title":"cb","baseRate":"2.40"}],"vehicleLuggageCapacity":"4","vehiclePassengerCapacity":"3","vehicleTitle":"3-Pax sedan","fullTotalAmount":"147.85","pickuplocation":"335 Tresser Boulevard, Stamford, CT, United States","dropupaddress":"335 Tresser Boulevard, Stamford, CT, United States","numberOfPasenger":"2","childValueStorhere":"","jurneyDate":"12/30/2017","jurneyTime":"10:00 PM","vehicle_code":"SED","updateVehicleInfoservices":"HRLY"}
    [grandTotal] => 147.85
    [cardTotalValue] => Array
        (
            [payment_type] => CASH
            [cardNumber] => 5555555555554444
            [cardMonth] => 06
            [cardYear] => 21
            [cardHolderName] => Test Card
            [cardHolderAddress] => 10, Dhaka
            [cardHolderZipCode] => 22222
            [cardccvNumber] => 123
        )

    [refrenceNo] => 
    [otherComment] => 
    [grpname] => 
    [childSeatValue] => 0
    [specialPackage] => 0
    [specialPackageDiscount] => 0
    [extrachildSheet] => 
    [paymentType] => CASH
    [__stripe_mid] => 50871af8-0737-48ed-b610-3f8fac9fbd9e
    [__stripe_sid] => fb3c6476-0cc9-498c-8b1e-601f0b1f71fa
)


== end $_REQUEST ==========================

==start rate_lookup request ========================-------------------------------------------------

{"passenger_count":"2","luggage_count":3,"service_type_id":12620,"vehicle_types":[ 1 ],"pickup":{"type":"address","address":{"address_line1":"335 Tresser Boulevard, Stamford, CT, United States"}},"dropoff":{"type":"address","address":{"address_line1":"335 Tresser Boulevard, Stamford, CT, United States"}},"scheduled_pickup_at":"2017-12-30T22:00:00-06:00","stops":[{"type":"address","instructions":"","address":{"address_line1":"1800 East Putnam Avenue, Old Greenwich, CT, United States","address_line2":""}}]}

==end rate_lookup request ==========================

==start rate_lookup response ========================

{"service_type_id":12620,"rental_agreement_id":2583,"results":[{"id":927,"vehicle_type_id":1,"vehicle_type_name":"3-Pax sedan","vehicle_type_images":["https://manage.mylimobiz.com:443/Uploads/2061/VehicleTypes/1/616201501426_hLCo2SQ118G03FU8HSdo.jpg"],"passenger_capacity":3,"luggage_capacity":4,"is_handicap_accessible":false,"has_optional_charges":false}]}

==end rate_lookup response ==========================

==== bookings request ====

Array
(
    [search_result_id] => 927
    [passengers] => Array
        (
            [0] => Array
                (
                    [account_number] => 974
                    [first_name] => Jose
                    [last_name] => Pichardo
                    [company] => 
                    [phone] => +19548579129
                    [email] => jpichardo7@yahoo.com
                )

        )

    [applied_optional_rates] => Array
        (
            [0] => 1
            [1] => 2
        )

    [credit_card_info] => Array
        (
            [card_number] => 5555555555554444
            [expires_at] => 2021-06-01T18:41:11+03:00
            [billing_address] => Array
                (
                    [name] => Test Card
                    [postal_code] => 22222
                    [city] => 10, Dhaka
                    [address_line1] => 10, Dhaka
                )

        )

    [payment_type_id] => 51
)


==========================

{"id":68364618,"confirmation_number":"13056"}

--------------------------------------------------------------------------------------------------

== start $_GET ========================

Array
(
)


== end $_GET ==========================

== start $_POST ========================

Array
(
    [action] => passengerReservation
    [jurneyDetail] => {"action":"getFromSeaportRate","pickuplocation":"Port of Miami(5201)(Miami)","dropoff_location":"1701 Collins Avenue, Miami Beach, FL, United States","pickup_date":"12/29/2017","pickup_time":"12:00 PM","limo_any_where_api_key":"MCfamaNJ0ticn2OPK10C","limo_any_where_api_id":"aWSgQTEJAMWbf10","user_id":"22","total_passenger":"1","serviceType":"SEAA","isLocationPut":"no","ismeetGreetUpdateChecked":"no","iscurbsideUpdateChecked":"yes","interNationFlightChecked":"no","current_date":"012/27/2017","passenger_id":"","totalLuggage":1}
    [firstName] => jose
    [lastName] => abreu
    [passengerMobileNumber] => 954 8579129
    [passengerEmailName] => jpichardo7@hotmail.com
    [service_name] => Carnival
    [service_number] => Dream
    [service_from] => bahamas
    [service_note] => 
    [numberOfPassengerInput] => 
    [bookingInfo] => {"AllRateJson":[{"vehicle_title":"Base Rate","baseRate":"67.00"},{"vehicle_title":"Driver Gratuty","baseRate":"6.70"},{"vehicle_title":"Administrative Fees","baseRate":"1.00"},{"vehicle_title":"Tax","baseRate":"4.69"},{"vehicle_title":"Black Car Fund","baseRate":"0.67"},{"vehicle_title":"Fuel Surcharge","baseRate":"0.67"},{"vehicle_title":"STC","baseRate":"0.67"},{"vehicle_title":"Reserve","baseRate":"1.00"},{"vehicle_title":"Seaport Surcharge","baseRate":"10.00"},{"vehicle_title":"fhv access fee","baseRate":"5.00"},{"vehicle_title":"sub-total item one pct","baseRate":"0.67"},{"vehicle_title":"total item one pct","baseRate":"0.95"},{"vehicle_title":"total item one fixed","baseRate":"1.00"},{"vehicle_title":"sub-total item one fixed","baseRate":"1.00"}],"vehicleLuggageCapacity":"4","vehiclePassengerCapacity":"3","vehicleTitle":"3-Pax sedan","fullTotalAmount":"$101.02","pickuplocation":"Port of Miami(5201)(Miami)","dropupaddress":"1701 Collins Avenue, Miami Beach, FL, United States","numberOfPasenger":"1","childValueStorhere":"","jurneyDate":"12/29/2017","jurneyTime":"12:00 PM","vehicle_code":"SED","updateVehicleInfoservices":"SEAA"}
    [grandTotal] => 101.02
    [cardTotalValue] => Array
        (
            [payment_type] => CASH
            [cardNumber] => 4242424242424242
            [cardMonth] => 07
            [cardYear] => 24
            [cardHolderName] => jose abreu
            [cardHolderAddress] => 1234 my street
            [cardHolderZipCode] => 33221
            [cardccvNumber] => 112
        )

    [refrenceNo] => 
    [otherComment] => 
    [grpname] => 
    [childSeatValue] => 0
    [specialPackage] => 0
    [specialPackageDiscount] => 0
    [extrachildSheet] => 
    [paymentType] => CASH
)


== end $_POST ==========================

== start $_REQUEST ========================

Array
(
    [action] => passengerReservation
    [jurneyDetail] => {"action":"getFromSeaportRate","pickuplocation":"Port of Miami(5201)(Miami)","dropoff_location":"1701 Collins Avenue, Miami Beach, FL, United States","pickup_date":"12/29/2017","pickup_time":"12:00 PM","limo_any_where_api_key":"MCfamaNJ0ticn2OPK10C","limo_any_where_api_id":"aWSgQTEJAMWbf10","user_id":"22","total_passenger":"1","serviceType":"SEAA","isLocationPut":"no","ismeetGreetUpdateChecked":"no","iscurbsideUpdateChecked":"yes","interNationFlightChecked":"no","current_date":"012/27/2017","passenger_id":"","totalLuggage":1}
    [firstName] => jose
    [lastName] => abreu
    [passengerMobileNumber] => 954 8579129
    [passengerEmailName] => jpichardo7@hotmail.com
    [service_name] => Carnival
    [service_number] => Dream
    [service_from] => bahamas
    [service_note] => 
    [numberOfPassengerInput] => 
    [bookingInfo] => {"AllRateJson":[{"vehicle_title":"Base Rate","baseRate":"67.00"},{"vehicle_title":"Driver Gratuty","baseRate":"6.70"},{"vehicle_title":"Administrative Fees","baseRate":"1.00"},{"vehicle_title":"Tax","baseRate":"4.69"},{"vehicle_title":"Black Car Fund","baseRate":"0.67"},{"vehicle_title":"Fuel Surcharge","baseRate":"0.67"},{"vehicle_title":"STC","baseRate":"0.67"},{"vehicle_title":"Reserve","baseRate":"1.00"},{"vehicle_title":"Seaport Surcharge","baseRate":"10.00"},{"vehicle_title":"fhv access fee","baseRate":"5.00"},{"vehicle_title":"sub-total item one pct","baseRate":"0.67"},{"vehicle_title":"total item one pct","baseRate":"0.95"},{"vehicle_title":"total item one fixed","baseRate":"1.00"},{"vehicle_title":"sub-total item one fixed","baseRate":"1.00"}],"vehicleLuggageCapacity":"4","vehiclePassengerCapacity":"3","vehicleTitle":"3-Pax sedan","fullTotalAmount":"$101.02","pickuplocation":"Port of Miami(5201)(Miami)","dropupaddress":"1701 Collins Avenue, Miami Beach, FL, United States","numberOfPasenger":"1","childValueStorhere":"","jurneyDate":"12/29/2017","jurneyTime":"12:00 PM","vehicle_code":"SED","updateVehicleInfoservices":"SEAA"}
    [grandTotal] => 101.02
    [cardTotalValue] => Array
        (
            [payment_type] => CASH
            [cardNumber] => 4242424242424242
            [cardMonth] => 07
            [cardYear] => 24
            [cardHolderName] => jose abreu
            [cardHolderAddress] => 1234 my street
            [cardHolderZipCode] => 33221
            [cardccvNumber] => 112
        )

    [refrenceNo] => 
    [otherComment] => 
    [grpname] => 
    [childSeatValue] => 0
    [specialPackage] => 0
    [specialPackageDiscount] => 0
    [extrachildSheet] => 
    [paymentType] => CASH
    [__stripe_sid] => ef09fa95-1123-4b8f-92f8-d6b406208b17
    [__stripe_mid] => 7aac3c79-f619-4679-a842-afa831603b43
)


== end $_REQUEST ==========================

==start rate_lookup request ========================-------------------------------------------------

{"passenger_count":"1","luggage_count":1,"service_type_id":12624,"vehicle_types":[ 1 ],"pickup":{"type":"seaport","cruise":{"seaport_code":"NYC","cruise_ship_name":"Dream","cruiseline_name":"Carnival"},"address":{"address_line1":"Port of Miami(5201)(Miami)"}},"dropoff":{"type":"address","address":{"address_line1":"1701 Collins Avenue, Miami Beach, FL, United States"}},"scheduled_pickup_at":"2017-12-29T12:00:00-06:00"}

==end rate_lookup request ==========================

==start rate_lookup response ========================

{"service_type_id":12624,"rental_agreement_id":2583,"results":[{"id":930,"vehicle_type_id":1,"vehicle_type_name":"3-Pax sedan","vehicle_type_images":["https://manage.mylimobiz.com:443/Uploads/2061/VehicleTypes/1/616201501426_hLCo2SQ118G03FU8HSdo.jpg"],"passenger_capacity":3,"luggage_capacity":4,"is_handicap_accessible":false,"has_optional_charges":false}]}

==end rate_lookup response ==========================

==== bookings request ====

Array
(
    [search_result_id] => 930
    [passengers] => Array
        (
            [0] => Array
                (
                    [account_number] => 982
                    [first_name] => jose
                    [last_name] => abreu
                    [company] => 
                    [phone] => +19548579129
                    [email] => jpichardo7@hotmail.com
                )

        )

    [applied_optional_rates] => Array
        (
            [0] => 1
            [1] => 2
        )

    [credit_card_info] => Array
        (
            [card_number] => 4242424242424242
            [expires_at] => 2024-07-01T18:41:11+03:00
            [billing_address] => Array
                (
                    [name] => jose abreu
                    [postal_code] => 33221
                    [city] => 1234 my street
                    [address_line1] => 1234 my street
                )

        )

    [payment_type_id] => 51
)


==========================

{"id":68382114,"confirmation_number":"13059"}======  =============

====== ./ ===========

======  =============

====== ./ ===========

======  =============

====== ./ ===========

======  =============

====== ./ ===========

======  =============

====== ./ ===========

======  =============

====== ./ ===========

======  =============

====== ./ ===========

======  =============

====== ./ ===========

======  =============

====== ./ ===========

======  =============

====== ./ ===========

======  =============

====== ./ ===========

======  =============

====== ./ ===========

======  =============

====== ./ ===========

======  =============

====== ./ ===========

======  =============

====== ./ ===========

====== $_GET =============
Array
(
)

====== ./$_GET ===========

====== $_POST =============
Array
(
    [action] => passengerReservation
    [jurneyDetail] => {"action":"getFromAirportRate","pickuplocation":"Miami International Airport(KMIA)(Miami)","dropoff_location":"501 East, East Camino Real, Boca Raton, FL, United States","pickup_date":"12/30/2017","pickup_time":"10:00 PM","limo_any_where_api_key":"MCfamaNJ0ticn2OPK10C","limo_any_where_api_id":"aWSgQTEJAMWbf10","user_id":"22","total_passenger":"3","serviceType":"AIRA","stopAddtress":"1601 Collins Avenue, Miami, FL, United States","isLocationPut":"yes","ismeetGreetUpdateChecked":"yes","iscurbsideUpdateChecked":"no","interNationFlightChecked":"yes","current_date":"012/28/2017","passenger_id":"","totalLuggage":3}
    [firstName] => Jose
    [lastName] => Pichardo
    [passengerMobileNumber] => 954 8579129
    [passengerEmailName] => jpichardo7@yahoo.com
    [service_name] => Delta Air Lines - DL 
    [service_number] => 1234
    [service_from] => 
    [service_note] => 
    [numberOfPassengerInput] => 
    [bookingInfo] => {"AllRateJson":[{"vehicle_title":"Base Rate","baseRate":"515.00"},{"vehicle_title":"Driver Gratuty","baseRate":"77.25"},{"vehicle_title":"Stops Rates","baseRate":"20.00"},{"vehicle_title":"Administrative Fees","baseRate":"1.00"},{"vehicle_title":"Tax","baseRate":"36.05"},{"vehicle_title":"Black Car Fund","baseRate":"5.15"},{"vehicle_title":"Fuel Surcharge","baseRate":"5.15"},{"vehicle_title":"STC","baseRate":"5.15"},{"vehicle_title":"Reserve","baseRate":"1.00"},{"vehicle_title":"FHV Access Fees","baseRate":"3.00"},{"vehicle_title":"Int. flight srg.","baseRate":"20"},{"vehicle_title":"Parking fees","baseRate":"8.00"},{"vehicle_title":"sub-total item one pct","baseRate":"5.15"},{"vehicle_title":"total item one pct","baseRate":"6.95"},{"vehicle_title":"total item one fixed","baseRate":"1.00"},{"vehicle_title":"sub-total item one fixed","baseRate":"1.00"}],"vehicleLuggageCapacity":"3","vehiclePassengerCapacity":"3","vehicleTitle":"3-Pax Mercedes Benz S550","fullTotalAmount":"$710.85","pickuplocation":"Miami International Airport(KMIA)(Miami)","dropupaddress":"501 East, East Camino Real, Boca Raton, FL, United States","numberOfPasenger":"3","childValueStorhere":"","jurneyDate":"12/30/2017","jurneyTime":"10:00 PM","vehicle_code":"MBS550","updateVehicleInfoservices":"AIRA"}
    [grandTotal] => 710.85
    [cardTotalValue] => Array
        (
            [payment_type] => CASH
            [cardNumber] => 5555555555554444
            [cardMonth] => 03
            [cardYear] => 20
            [cardHolderName] => Test Card
            [cardHolderAddress] => 10, Dhaka
            [cardHolderZipCode] => 22222
            [cardccvNumber] => 123
        )

    [refrenceNo] => 
    [otherComment] => 
    [grpname] => 
    [childSeatValue] => 0
    [specialPackage] => 0
    [specialPackageDiscount] => 0
    [extrachildSheet] => 
    [paymentType] => CASH
)

====== ./$_POST ===========

====== $_REQUEST =============
Array
(
    [action] => passengerReservation
    [jurneyDetail] => {"action":"getFromAirportRate","pickuplocation":"Miami International Airport(KMIA)(Miami)","dropoff_location":"501 East, East Camino Real, Boca Raton, FL, United States","pickup_date":"12/30/2017","pickup_time":"10:00 PM","limo_any_where_api_key":"MCfamaNJ0ticn2OPK10C","limo_any_where_api_id":"aWSgQTEJAMWbf10","user_id":"22","total_passenger":"3","serviceType":"AIRA","stopAddtress":"1601 Collins Avenue, Miami, FL, United States","isLocationPut":"yes","ismeetGreetUpdateChecked":"yes","iscurbsideUpdateChecked":"no","interNationFlightChecked":"yes","current_date":"012/28/2017","passenger_id":"","totalLuggage":3}
    [firstName] => Jose
    [lastName] => Pichardo
    [passengerMobileNumber] => 954 8579129
    [passengerEmailName] => jpichardo7@yahoo.com
    [service_name] => Delta Air Lines - DL 
    [service_number] => 1234
    [service_from] => 
    [service_note] => 
    [numberOfPassengerInput] => 
    [bookingInfo] => {"AllRateJson":[{"vehicle_title":"Base Rate","baseRate":"515.00"},{"vehicle_title":"Driver Gratuty","baseRate":"77.25"},{"vehicle_title":"Stops Rates","baseRate":"20.00"},{"vehicle_title":"Administrative Fees","baseRate":"1.00"},{"vehicle_title":"Tax","baseRate":"36.05"},{"vehicle_title":"Black Car Fund","baseRate":"5.15"},{"vehicle_title":"Fuel Surcharge","baseRate":"5.15"},{"vehicle_title":"STC","baseRate":"5.15"},{"vehicle_title":"Reserve","baseRate":"1.00"},{"vehicle_title":"FHV Access Fees","baseRate":"3.00"},{"vehicle_title":"Int. flight srg.","baseRate":"20"},{"vehicle_title":"Parking fees","baseRate":"8.00"},{"vehicle_title":"sub-total item one pct","baseRate":"5.15"},{"vehicle_title":"total item one pct","baseRate":"6.95"},{"vehicle_title":"total item one fixed","baseRate":"1.00"},{"vehicle_title":"sub-total item one fixed","baseRate":"1.00"}],"vehicleLuggageCapacity":"3","vehiclePassengerCapacity":"3","vehicleTitle":"3-Pax Mercedes Benz S550","fullTotalAmount":"$710.85","pickuplocation":"Miami International Airport(KMIA)(Miami)","dropupaddress":"501 East, East Camino Real, Boca Raton, FL, United States","numberOfPasenger":"3","childValueStorhere":"","jurneyDate":"12/30/2017","jurneyTime":"10:00 PM","vehicle_code":"MBS550","updateVehicleInfoservices":"AIRA"}
    [grandTotal] => 710.85
    [cardTotalValue] => Array
        (
            [payment_type] => CASH
            [cardNumber] => 5555555555554444
            [cardMonth] => 03
            [cardYear] => 20
            [cardHolderName] => Test Card
            [cardHolderAddress] => 10, Dhaka
            [cardHolderZipCode] => 22222
            [cardccvNumber] => 123
        )

    [refrenceNo] => 
    [otherComment] => 
    [grpname] => 
    [childSeatValue] => 0
    [specialPackage] => 0
    [specialPackageDiscount] => 0
    [extrachildSheet] => 
    [paymentType] => CASH
    [__stripe_mid] => 63fad041-2031-4b77-9182-03848190355c
    [__stripe_sid] => 39b37db2-a1be-46d5-a8d7-a4ba32766d42
)

====== ./$_REQUEST ===========

====== rate_lookup request =============
{"passenger_count":"3","luggage_count":3,"service_type_id":46,"vehicle_types":[23],"pickup":{"type":"airport","flight":{"airport_code":"KMIA"},"address":{"address_line1":"Miami International Airport(KMIA)(Miami)"}},"dropoff":{"type":"address","address":{"address_line1":"501 East, East Camino Real, Boca Raton, FL, United States"}},"scheduled_pickup_at":"2017-12-30T22:00:00-06:00","stops":[{"type":"address","instructions":"","address":{"address_line1":"1601 Collins Avenue, Miami, FL, United States"}}]}
====== ./rate_lookup request ===========

====== rate_lookup response =============
{"service_type_id":46,"rental_agreement_id":2583,"results":[{"id":941,"vehicle_type_id":23,"vehicle_type_name":"3-Pax Mercedes Benz S550","vehicle_type_images":["https://manage.mylimobiz.com:443/Uploads/2061/VehicleTypes/23/616201524140_imd5GTr21Ah13GV0IT1p.jpg"],"passenger_capacity":3,"luggage_capacity":3,"is_handicap_accessible":false,"has_optional_charges":false}]}
====== ./rate_lookup response ===========

====== bookings request =============
{"search_result_id":941,"passengers":[{"first_name":"Jose","last_name":"Pichardo","company":"","phone":"+19548579129","email":"jpichardo7@yahoo.com"}],"applied_optional_rates":[1,2],"credit_card_info":{"card_number":"5555555555554444","expires_at":"2020-03-01T18:41:11+03:00","billing_address":{"name":"Test Card","postal_code":"22222","city":"10, Dhaka","address_line1":"10, Dhaka"}},"payment_type_id":51,"pickup_flight_info":{"airline_name":"Delta Air Lines - DL ","airline_code":"DL","flight_number":"1234"}}
====== ./bookings request ===========

====== bookings response =============
{"id":68393626,"confirmation_number":"13071"}
====== ./bookings response ===========

======  =============

====== ./ ===========

======  =============

====== ./ ===========

======  =============

====== ./ ===========

======  =============

====== ./ ===========

======  =============

====== ./ ===========

======  =============

====== ./ ===========

======  =============

====== ./ ===========

======  =============

====== ./ ===========

======  =============

====== ./ ===========

======  =============

====== ./ ===========

======  =============

====== ./ ===========

======  =============

====== ./ ===========

======  =============

====== ./ ===========

======  =============

====== ./ ===========

======  =============

====== ./ ===========

======  =============

====== ./ ===========

======  =============

====== ./ ===========

======  =============

====== ./ ===========

======  =============

====== ./ ===========

======  =============

====== ./ ===========

======  =============

====== ./ ===========

