Country,Country Code,State/Province,State/Province Abb,County,City,ZipCode
United States,US,Connecticut,CT,Fairfield ,Bethel,06801
United States,US,Connecticut,CT,Fairfield ,Bridgeport,06604
United States,US,Connecticut,CT,Fairfield ,Bridgeport,06605
United States,US,Connecticut,CT,Fairfield ,Bridgeport,06606
United States,US,Connecticut,CT,Fairfield ,Bridgeport,06607
United States,US,Connecticut,CT,Fairfield ,Bridgeport,06608
United States,US,Connecticut,CT,Fairfield ,Bridgeport,06610
United States,US,Connecticut,CT,Fairfield ,Bridgeport,06650
United States,US,Connecticut,CT,Fairfield ,Brookfield,06804
United States,US,Connecticut,CT,Fairfield ,Cos Cob,06807
United States,US,Connecticut,CT,Fairfield ,Danbury,06810
United States,US,Connecticut,CT,Fairfield ,Danbury,06811
United States,US,Connecticut,CT,Fairfield ,Darien,06820
United States,US,Connecticut,CT,Fairfield ,Easton,06612
United States,US,Connecticut,CT,Fairfield ,Fairfield,06824
United States,US,Connecticut,CT,Fairfield ,Fairfield,06825
United States,US,Connecticut,CT,Fairfield ,Greenwich,06830
United States,US,Connecticut,CT,Fairfield ,Greenwich,06831
United States,US,Connecticut,CT,Fairfield ,Monroe,06468
United States,US,Connecticut,CT,Fairfield ,New Canaan,06840
United States,US,Connecticut,CT,Fairfield ,New Fairfield,06812
United States,US,Connecticut,CT,Fairfield ,Newtown,06470
United States,US,Connecticut,CT,Fairfield ,Norwalk,06850
United States,US,Connecticut,CT,Fairfield ,Norwalk,06851
United States,US,Connecticut,CT,Fairfield ,Norwalk,06853
United States,US,Connecticut,CT,Fairfield ,Norwalk,06854
United States,US,Connecticut,CT,Fairfield ,Norwalk,06855
United States,US,Connecticut,CT,Fairfield ,Old Greenwich,06870
United States,US,Connecticut,CT,Fairfield ,Redding,06896
United States,US,Connecticut,CT,Fairfield ,Ridgefield,06877
United States,US,Connecticut,CT,Fairfield ,Riverside,06878
United States,US,Connecticut,CT,Fairfield ,Sandy Hook,06482
United States,US,Connecticut,CT,Fairfield ,Shelton,06484
United States,US,Connecticut,CT,Fairfield ,Sherman,06784
United States,US,Connecticut,CT,Fairfield ,Southport,06890
United States,US,Connecticut,CT,Fairfield ,Stamford,06901
United States,US,Connecticut,CT,Fairfield ,Stamford,06902
United States,US,Connecticut,CT,Fairfield ,Stamford,06903
United States,US,Connecticut,CT,Fairfield ,Stamford,06905
United States,US,Connecticut,CT,Fairfield ,Stamford,06906
United States,US,Connecticut,CT,Fairfield ,Stamford,06907
United States,US,Connecticut,CT,Fairfield ,Stamford,06910
United States,US,Connecticut,CT,Fairfield ,Stratford,06497
United States,US,Connecticut,CT,Fairfield ,Stratford,06614
United States,US,Connecticut,CT,Fairfield ,Stratford,06615
United States,US,Connecticut,CT,Fairfield ,Trumbull,06611
United States,US,Connecticut,CT,Fairfield ,Weston,06883
United States,US,Connecticut,CT,Fairfield ,Westport,06880
United States,US,Connecticut,CT,Fairfield ,Wilton,06897
United States,US,Connecticut,CT,Hartford ,Avon,06001
United States,US,Connecticut,CT,Hartford ,Berlin,06037
United States,US,Connecticut,CT,Hartford ,Bloomfield,06002
United States,US,Connecticut,CT,Hartford ,Bristol,06010
United States,US,Connecticut,CT,Hartford ,Broad Brook,06016
United States,US,Connecticut,CT,Hartford ,Burlington,06013
United States,US,Connecticut,CT,Hartford ,Canton,06019
United States,US,Connecticut,CT,Hartford ,Canton Center,06020
United States,US,Connecticut,CT,Hartford ,Collinsville,06022
United States,US,Connecticut,CT,Hartford ,East Berlin,06023
United States,US,Connecticut,CT,Hartford ,East Granby,06026
United States,US,Connecticut,CT,Hartford ,East Hartford,06108
United States,US,Connecticut,CT,Hartford ,East Hartford,06118
United States,US,Connecticut,CT,Hartford ,East Hartland,06027
United States,US,Connecticut,CT,Hartford ,East Windsor,06088
United States,US,Connecticut,CT,Hartford ,Enfield,06082
United States,US,Connecticut,CT,Hartford ,Farmington,06032
United States,US,Connecticut,CT,Hartford ,Glastonbury,06033
United States,US,Connecticut,CT,Hartford ,Granby,06035
United States,US,Connecticut,CT,Hartford ,Hartford,06101
United States,US,Connecticut,CT,Hartford ,Hartford,06103
United States,US,Connecticut,CT,Hartford ,Hartford,06105
United States,US,Connecticut,CT,Hartford ,Hartford,06106
United States,US,Connecticut,CT,Hartford ,Hartford,06112
United States,US,Connecticut,CT,Hartford ,Hartford,06114
United States,US,Connecticut,CT,Hartford ,Hartford,06120
United States,US,Connecticut,CT,Hartford ,Hartford,06152
United States,US,Connecticut,CT,Hartford ,Hartford,06199
United States,US,Connecticut,CT,Hartford ,Manchester,06040
United States,US,Connecticut,CT,Hartford ,Manchester,06042
United States,US,Connecticut,CT,Hartford ,Marlborough,06447
United States,US,Connecticut,CT,Hartford ,New Britain,06051
United States,US,Connecticut,CT,Hartford ,New Britain,06052
United States,US,Connecticut,CT,Hartford ,New Britain,06053
United States,US,Connecticut,CT,Hartford ,Newington,06111
United States,US,Connecticut,CT,Hartford ,North Canton,06059
United States,US,Connecticut,CT,Hartford ,North Granby,06060
United States,US,Connecticut,CT,Hartford ,Plainville,06062
United States,US,Connecticut,CT,Hartford ,Plantsville,06479
United States,US,Connecticut,CT,Hartford ,Riverton,06065
United States,US,Connecticut,CT,Hartford ,Rocky Hill,06067
United States,US,Connecticut,CT,Hartford ,Simsbury,06070
United States,US,Connecticut,CT,Hartford ,South Glastonbury,06073
United States,US,Connecticut,CT,Hartford ,South Windsor,06074
United States,US,Connecticut,CT,Hartford ,Southington,06489
United States,US,Connecticut,CT,Hartford ,Suffield,06078
United States,US,Connecticut,CT,Hartford ,Tariffville,06081
United States,US,Connecticut,CT,Hartford ,Unionville,06085
United States,US,Connecticut,CT,Hartford ,Weatogue,06089
United States,US,Connecticut,CT,Hartford ,West Granby,06090
United States,US,Connecticut,CT,Hartford ,West Hartford,06107
United States,US,Connecticut,CT,Hartford ,West Hartford,06110
United States,US,Connecticut,CT,Hartford ,West Hartford,06117
United States,US,Connecticut,CT,Hartford ,West Hartford,06119
United States,US,Connecticut,CT,Hartford ,West Hartland,06091
United States,US,Connecticut,CT,Hartford ,West Simsbury,06092
United States,US,Connecticut,CT,Hartford ,West Suffield,06093
United States,US,Connecticut,CT,Hartford ,Wethersfield,06109
United States,US,Connecticut,CT,Hartford ,Windsor,06095
United States,US,Connecticut,CT,Hartford ,Windsor Locks,06096
United States,US,Connecticut,CT,Litchfield ,Bantam,06750
United States,US,Connecticut,CT,Litchfield ,Barkhamsted,06063
United States,US,Connecticut,CT,Litchfield ,Bethlehem,06751
United States,US,Connecticut,CT,Litchfield ,Bridgewater,06752
United States,US,Connecticut,CT,Litchfield ,Canaan,06018
United States,US,Connecticut,CT,Litchfield ,Colebrook,06021
United States,US,Connecticut,CT,Litchfield ,Cornwall Bridge,06754
United States,US,Connecticut,CT,Litchfield ,East Canaan,06024
United States,US,Connecticut,CT,Litchfield ,Falls Village,06031
United States,US,Connecticut,CT,Litchfield ,Gaylordsville,06755
United States,US,Connecticut,CT,Litchfield ,Goshen,06756
United States,US,Connecticut,CT,Litchfield ,Harwinton,06791
United States,US,Connecticut,CT,Litchfield ,Kent,06757
United States,US,Connecticut,CT,Litchfield ,Lakeside,06758
United States,US,Connecticut,CT,Litchfield ,Lakeville,06039
United States,US,Connecticut,CT,Litchfield ,Litchfield,06759
United States,US,Connecticut,CT,Litchfield ,Morris,06763
United States,US,Connecticut,CT,Litchfield ,New Hartford,06057
United States,US,Connecticut,CT,Litchfield ,New Milford,06776
United States,US,Connecticut,CT,Litchfield ,New Preston Marble Dale,06777
United States,US,Connecticut,CT,Litchfield ,Norfolk,06058
United States,US,Connecticut,CT,Litchfield ,Northfield,06778
United States,US,Connecticut,CT,Litchfield ,Oakville,06779
United States,US,Connecticut,CT,Litchfield ,Plymouth,06782
United States,US,Connecticut,CT,Litchfield ,Roxbury,06783
United States,US,Connecticut,CT,Litchfield ,Salisbury,06068
United States,US,Connecticut,CT,Litchfield ,Sharon,06069
United States,US,Connecticut,CT,Litchfield ,South Kent,06785
United States,US,Connecticut,CT,Litchfield ,Terryville,06786
United States,US,Connecticut,CT,Litchfield ,Thomaston,06787
United States,US,Connecticut,CT,Litchfield ,Torrington,06790
United States,US,Connecticut,CT,Litchfield ,Washington,06793
United States,US,Connecticut,CT,Litchfield ,Washington Depot,06794
United States,US,Connecticut,CT,Litchfield ,Watertown,06795
United States,US,Connecticut,CT,Litchfield ,West Cornwall,06796
United States,US,Connecticut,CT,Litchfield ,Winsted,06098
United States,US,Connecticut,CT,Litchfield ,Woodbury,06798
United States,US,Connecticut,CT,Middlesex ,Centerbrook,06409
United States,US,Connecticut,CT,Middlesex ,Chester,06412
United States,US,Connecticut,CT,Middlesex ,Clinton,06413
United States,US,Connecticut,CT,Middlesex ,Cromwell,06416
United States,US,Connecticut,CT,Middlesex ,Deep River,06417
United States,US,Connecticut,CT,Middlesex ,Durham,06422
United States,US,Connecticut,CT,Middlesex ,East Haddam,06423
United States,US,Connecticut,CT,Middlesex ,East Hampton,06424
United States,US,Connecticut,CT,Middlesex ,Essex,06426
United States,US,Connecticut,CT,Middlesex ,Haddam,06438
United States,US,Connecticut,CT,Middlesex ,Higganum,06441
United States,US,Connecticut,CT,Middlesex ,Ivoryton,06442
United States,US,Connecticut,CT,Middlesex ,Killingworth,06419
United States,US,Connecticut,CT,Middlesex ,Middlefield,06455
United States,US,Connecticut,CT,Middlesex ,Middletown,06457
United States,US,Connecticut,CT,Middlesex ,Moodus,06469
United States,US,Connecticut,CT,Middlesex ,Old Saybrook,06475
United States,US,Connecticut,CT,Middlesex ,Portland,06480
United States,US,Connecticut,CT,Middlesex ,Rockfall,06481
United States,US,Connecticut,CT,Middlesex ,Westbrook,06498
United States,US,Connecticut,CT,New Haven ,Ansonia,06401
United States,US,Connecticut,CT,New Haven ,Beacon Falls,06403
United States,US,Connecticut,CT,New Haven ,Bethany,06524
United States,US,Connecticut,CT,New Haven ,Branford,06405
United States,US,Connecticut,CT,New Haven ,Cheshire,06410
United States,US,Connecticut,CT,New Haven ,Derby,06418
United States,US,Connecticut,CT,New Haven ,East Haven,06512
United States,US,Connecticut,CT,New Haven ,Guilford,06437
United States,US,Connecticut,CT,New Haven ,Hamden,06514
United States,US,Connecticut,CT,New Haven ,Hamden,06517
United States,US,Connecticut,CT,New Haven ,Hamden,06518
United States,US,Connecticut,CT,New Haven ,Madison,06443
United States,US,Connecticut,CT,New Haven ,Meriden,06450
United States,US,Connecticut,CT,New Haven ,Meriden,06451
United States,US,Connecticut,CT,New Haven ,Middlebury,06762
United States,US,Connecticut,CT,New Haven ,Milford,06460
United States,US,Connecticut,CT,New Haven ,Milford,06461
United States,US,Connecticut,CT,New Haven ,Naugatuck,06770
United States,US,Connecticut,CT,New Haven ,New Haven,06510
United States,US,Connecticut,CT,New Haven ,New Haven,06511
United States,US,Connecticut,CT,New Haven ,New Haven,06513
United States,US,Connecticut,CT,New Haven ,New Haven,06515
United States,US,Connecticut,CT,New Haven ,New Haven,06519
United States,US,Connecticut,CT,New Haven ,North Branford,06471
United States,US,Connecticut,CT,New Haven ,North Haven,06473
United States,US,Connecticut,CT,New Haven ,Northford,06472
United States,US,Connecticut,CT,New Haven ,Orange,06477
United States,US,Connecticut,CT,New Haven ,Oxford,06478
United States,US,Connecticut,CT,New Haven ,Prospect,06712
United States,US,Connecticut,CT,New Haven ,Seymour,06483
United States,US,Connecticut,CT,New Haven ,Southbury,06488
United States,US,Connecticut,CT,New Haven ,Wallingford,06492
United States,US,Connecticut,CT,New Haven ,Waterbury,06702
United States,US,Connecticut,CT,New Haven ,Waterbury,06704
United States,US,Connecticut,CT,New Haven ,Waterbury,06705
United States,US,Connecticut,CT,New Haven ,Waterbury,06706
United States,US,Connecticut,CT,New Haven ,Waterbury,06708
United States,US,Connecticut,CT,New Haven ,Waterbury,06710
United States,US,Connecticut,CT,New Haven ,West Haven,06516
United States,US,Connecticut,CT,New Haven ,Wolcott,06716
United States,US,Connecticut,CT,New Haven ,Woodbridge,06525
United States,US,Connecticut,CT,New London ,Baltic,06330
United States,US,Connecticut,CT,New London ,Colchester,06415
United States,US,Connecticut,CT,New London ,East Lyme,06333
United States,US,Connecticut,CT,New London ,Gales Ferry,06335
United States,US,Connecticut,CT,New London ,Gilman,06336
United States,US,Connecticut,CT,New London ,Groton,06340
United States,US,Connecticut,CT,New London ,Jewett City,06351
United States,US,Connecticut,CT,New London ,Lebanon,06249
United States,US,Connecticut,CT,New London ,Ledyard,06339
United States,US,Connecticut,CT,New London ,Montville,06353
United States,US,Connecticut,CT,New London ,Mystic,06355
United States,US,Connecticut,CT,New London ,New London,06320
United States,US,Connecticut,CT,New London ,Niantic,06357
United States,US,Connecticut,CT,New London ,North Franklin,06254
United States,US,Connecticut,CT,New London ,North Stonington,06359
United States,US,Connecticut,CT,New London ,Norwich,06360
United States,US,Connecticut,CT,New London ,Oakdale,06370
United States,US,Connecticut,CT,New London ,Old Lyme,06371
United States,US,Connecticut,CT,New London ,Pawcatuck,06379
United States,US,Connecticut,CT,New London ,Preston,06365
United States,US,Connecticut,CT,New London ,Quaker Hill,06375
United States,US,Connecticut,CT,New London ,Salem,06420
United States,US,Connecticut,CT,New London ,Stonington,06378
United States,US,Connecticut,CT,New London ,Taftville,06380
United States,US,Connecticut,CT,New London ,Uncasville,06382
United States,US,Connecticut,CT,New London ,Voluntown,06384
United States,US,Connecticut,CT,New London ,Waterford,06385
United States,US,Connecticut,CT,Tolland ,Amston,06231
United States,US,Connecticut,CT,Tolland ,Andover,06232
United States,US,Connecticut,CT,Tolland ,Bolton,06043
United States,US,Connecticut,CT,Tolland ,Columbia,06237
United States,US,Connecticut,CT,Tolland ,Coventry,06238
United States,US,Connecticut,CT,Tolland ,Ellington,06029
United States,US,Connecticut,CT,Tolland ,Hebron,06248
United States,US,Connecticut,CT,Tolland ,Mansfield Center,06250
United States,US,Connecticut,CT,Tolland ,Somers,06071
United States,US,Connecticut,CT,Tolland ,Stafford Springs,06076
United States,US,Connecticut,CT,Tolland ,Storrs Mansfield,06268
United States,US,Connecticut,CT,Tolland ,Tolland,06084
United States,US,Connecticut,CT,Tolland ,Vernon Rockville,06066
United States,US,Connecticut,CT,Tolland ,Willington,06279
United States,US,Connecticut,CT,Windham ,Ashford,06278
United States,US,Connecticut,CT,Windham ,Brooklyn,06234
United States,US,Connecticut,CT,Windham ,Canterbury,06331
United States,US,Connecticut,CT,Windham ,Chaplin,06235
United States,US,Connecticut,CT,Windham ,Danielson,06239
United States,US,Connecticut,CT,Windham ,Dayville,06241
United States,US,Connecticut,CT,Windham ,East Killingly,06243
United States,US,Connecticut,CT,Windham ,Eastford,06242
United States,US,Connecticut,CT,Windham ,Hampton,06247
United States,US,Connecticut,CT,Windham ,Moosup,06354
United States,US,Connecticut,CT,Windham ,North Grosvenordale,06255
United States,US,Connecticut,CT,Windham ,North Windham,06256
United States,US,Connecticut,CT,Windham ,Plainfield,06374
United States,US,Connecticut,CT,Windham ,Pomfret Center,06259
United States,US,Connecticut,CT,Windham ,Putnam,06260
United States,US,Connecticut,CT,Windham ,Quinebaug,06262
United States,US,Connecticut,CT,Windham ,Scotland,06264
United States,US,Connecticut,CT,Windham ,South Windham,06266
United States,US,Connecticut,CT,Windham ,Sterling,06377
United States,US,Connecticut,CT,Windham ,Thompson,06277
United States,US,Connecticut,CT,Windham ,Willimantic,06226
United States,US,Connecticut,CT,Windham ,Windham,06280
United States,US,Connecticut,CT,Windham ,Woodstock,06281
United States,US,Connecticut,CT,Windham ,Woodstock Valley,06282
United States,US,Connecticut,CT,Fairfield ,Bridgeport,06673
United States,US,Connecticut,CT,Fairfield ,Bridgeport,06699
United States,US,Connecticut,CT,Fairfield ,Danbury,06814
United States,US,Connecticut,CT,Fairfield ,Danbury,06816
United States,US,Connecticut,CT,Fairfield ,Danbury,06817
United States,US,Connecticut,CT,Fairfield ,Fairfield,06828
United States,US,Connecticut,CT,Fairfield ,Greenwich,06832
United States,US,Connecticut,CT,Fairfield ,New Canaan,06842
United States,US,Connecticut,CT,Fairfield ,Norwalk,06857
United States,US,Connecticut,CT,Fairfield ,Norwalk,06858
United States,US,Connecticut,CT,Fairfield ,Norwalk,06859
United States,US,Connecticut,CT,Fairfield ,Norwalk,06860
United States,US,Connecticut,CT,Fairfield ,Ridgefield,06879
United States,US,Connecticut,CT,Fairfield ,Stamford,06913
United States,US,Connecticut,CT,Fairfield ,Stamford,06914
United States,US,Connecticut,CT,Fairfield ,Stamford,06920
United States,US,Connecticut,CT,Fairfield ,Stamford,06921
United States,US,Connecticut,CT,Fairfield ,Stamford,06922
United States,US,Connecticut,CT,Fairfield ,Stamford,06925
United States,US,Connecticut,CT,Fairfield ,Stamford,06926
United States,US,Connecticut,CT,Fairfield ,Stamford,06927
United States,US,Connecticut,CT,Fairfield ,Stamford,06928
United States,US,Connecticut,CT,Fairfield ,Westport,06888
United States,US,Connecticut,CT,Fairfield ,Westport,06889
United States,US,Connecticut,CT,Hartford ,Farmington,06030
United States,US,Connecticut,CT,Hartford ,Hartford,06150
United States,US,Connecticut,CT,Hartford ,Hartford,06151
United States,US,Connecticut,CT,Hartford ,Hartford,06153
United States,US,Connecticut,CT,Hartford ,Hartford,06154
United States,US,Connecticut,CT,Hartford ,Hartford,06155
United States,US,Connecticut,CT,Hartford ,Hartford,06156
United States,US,Connecticut,CT,Hartford ,Hartford,06160
United States,US,Connecticut,CT,Hartford ,Hartford,06161
United States,US,Connecticut,CT,Hartford ,Hartford,06167
United States,US,Connecticut,CT,Hartford ,Hartford,06176
United States,US,Connecticut,CT,Hartford ,Hartford,06180
United States,US,Connecticut,CT,Hartford ,Hartford,06183
United States,US,Connecticut,CT,Hartford ,Manchester,06041
United States,US,Connecticut,CT,Hartford ,Suffield,06080
United States,US,Connecticut,CT,Hartford ,Unionville,06087
United States,US,Connecticut,CT,Hartford ,Windsor,06006
United States,US,Connecticut,CT,Litchfield ,Torrington,06792
United States,US,Connecticut,CT,Middlesex ,Middletown,06459
United States,US,Connecticut,CT,New Haven ,Cheshire,06408
United States,US,Connecticut,CT,New Haven ,Cheshire,06411
United States,US,Connecticut,CT,New Haven ,Meriden,06454
United States,US,Connecticut,CT,New Haven ,New Haven,06537
United States,US,Connecticut,CT,New Haven ,New Haven,06538
United States,US,Connecticut,CT,New Haven ,New Haven,06540
United States,US,Connecticut,CT,New Haven ,Wallingford,06493
United States,US,Connecticut,CT,New Haven ,Wallingford,06494
United States,US,Connecticut,CT,New Haven ,Wallingford,06495
United States,US,Connecticut,CT,New Haven ,Waterbury,06701
United States,US,Connecticut,CT,New Haven ,Waterbury,06749
United States,US,Connecticut,CT,New London ,Waterford,06386
United States,US,Connecticut,CT,Tolland ,Storrs Mansfield,06269
