﻿Cruise Liner Name,Cruise Ship Name
AIDA Cruises,AIDAaura
AIDA Cruises,AIDAbella
AIDA Cruises,AIDAblu
AIDA Cruises,AIDAcara
AIDA Cruises,AIDAdiva
AIDA Cruises,AIDAluna
AIDA Cruises,AIDAmar
AIDA Cruises,AIDAprima
AIDA Cruises,AIDAsol
AIDA Cruises,AIDAstella
AIDA Cruises,AIDAvita
American Classic Voyages,Cape Cod Light
American Classic Voyages,Cape May Light
American Cruise Lines,American Glory
American Cruise Lines,Independence
American Hawaiian Cruises,Constitution
Azamara Cruises,Azamara Journey
Azamara Cruises,Azamara Quest
Birka Line,Birka Stockholm
Black Sea Cruises,Knyaz Vladimir
Carnival Cruise Lines,Carnival Breeze
Carnival Cruise Lines,Carnival Conquest
Carnival Cruise Lines,Carnival Dream
Carnival Cruise Lines,Carnival Ecstasy
Carnival Cruise Lines,Carnival Elation
Carnival Cruise Lines,Carnival Fantasy
Carnival Cruise Lines,Carnival Fascination
Carnival Cruise Lines,Carnival Freedom
Carnival Cruise Lines,Carnival Glory
Carnival Cruise Lines,Carnival Imagination
Carnival Cruise Lines,Carnival Inspiration
Carnival Cruise Lines,Carnival Legend
Carnival Cruise Lines,Carnival Liberty
Carnival Cruise Lines,Carnival Magic
Carnival Cruise Lines,Carnival Miracle
Carnival Cruise Lines,Carnival Paradise
Carnival Cruise Lines,Carnival Pride
Carnival Cruise Lines,Carnival Sensation
Carnival Cruise Lines,Carnival Spirit
Carnival Cruise Lines,Carnival Splendor
Carnival Cruise Lines,Carnival Sunshine
Carnival Cruise Lines,Carnival Triumph
Carnival Cruise Lines,Carnival Valor
Carnival Cruise Lines,Carnival Victory
Carnival Cruise Lines,Carnival Vista
CDF Croisières de France,Horizon
Celebration Cruise Line,Bahamas Celebration
Celebrity Cruises,Celebrity Century
Celebrity Cruises,Celebrity Constellation
Celebrity Cruises,Celebrity Eclipse
Celebrity Cruises,Celebrity Equinox
Celebrity Cruises,Celebrity Infinity
Celebrity Cruises,Celebrity Millennium
Celebrity Cruises,Celebrity Reflection
Celebrity Cruises,Celebrity Silhouette
Celebrity Cruises,Celebrity Solstice
Celebrity Cruises,Celebrity Summit
Celebrity Cruises,Celebrity Xpedition
Celebrity Cruises,Xpedition
Celestyal Cruises,Celestyal Crystal
China Cruise Company,China Star
Church of Scientology,Freewinds
Classic International Cruises,Athena
Classic International Cruises,Princess Daphne
Clipper Group,Clipper Adventurer
Clipper Group,Clipper Odyssey
Club Med,Club Med 2
Companhia Colonial de Navegacao,Barcelona
Coral Princess Cruises,Oceanic Discoverer
Costa Crociere,Costa Pacifica
Costa Cruises,Costa Atlantica
Costa Cruises,Costa Classica
Costa Cruises,Costa Concordia
Costa Cruises,Costa Deliziosa
Costa Cruises,Costa Diadema
Costa Cruises,Costa Fascinosa
Costa Cruises,Costa Favolosa
Costa Cruises,Costa Fortuna
Costa Cruises,Costa Fortuna
Costa Cruises,Costa Luminosa
Costa Cruises,Costa Magica
Costa Cruises,Costa Mediterranea
Costa Cruises,Costa neoRiviera
Costa Cruises,Costa neoRomantica
Costa Cruises,Costa Serena
Costa Cruises,Costa Victoria
Costa Cruises,Costa Voyager
Costa Cruises,Daphne
CPTM,Aranui 3
Cruceros Skorpios,Skorpios II
Cruceros Skorpios,Skorpios III
Cruise & Maritime Voyages,Astor
Cruise & Maritime Voyages,Magellan
Cruise West,Pacific Explorer
Cruise West,Spirit of '98
Cruise West,Spirit of Alaska
Cruise West,Spirit of Columbia
Cruise West,Spirit of Discovery
Cruise West,Spirit of Endeavour
Cruise West,Spirit of Glacier Bay
Cruise West,Spirit of Yorktown
Cruise West,Yorktown
Crystal Cruises,Crystal Serenity
Crystal Cruises,Crystal Symphony
Cunard Line,Queen Elizabeth
Cunard Line,Queen Mary 2
Cunard Line,Queen Victoria
Cunard Line,RMS Franconia
Cunard Line,RMS Mauretania
Cunard Line,RMS Mauretania II
Cypriot Salamis Cruises,Salamis Glory
Delphin Seereisen,Delphin
DFDS,Pearl Seaways
Disney Cruise Line,Disney Dream
Disney Cruise Line,Disney Fantasy
Disney Cruise Line,Disney Magic
Disney Cruise Line,Disney Wonder
Dolphin Cruise Line,Dolphin IV
Dream Cruises,Genting Dream
easyCruise,easyCruiseOne
easyCruise,Ocean Life
Etstur,Aegean Paradise
fathom,Adonia
Fleetpro Ocean,Ocean Endeavour
Fred. Olsen Cruise Lines,Balmoral
Fred. Olsen Cruise Lines,Black Watch
Fred. Olsen Cruise Lines,Boudicca
Fred. Olsen Cruise Lines,Braemar
Grand Circle Cruises,Clio
Hapag-Lloyd Cruises,Bremen
Hapag-Lloyd Cruises,Europa
Hapag-Lloyd Cruises,Hanseatic
Hebridean Island Cruises,Hebridean Princess
Holiday Kreuzfahrten,Mona Lisa
Holland America Line,Amsterdam
Holland America Line,Eurodam
Holland America Line,Koningsdam
Holland America Line,Maasdam
Holland America Line,Nieuw Amsterdam
Holland America Line,Noordam
Holland America Line,Oosterdam
Holland America Line,Prinsendam
Holland America Line,Rotterdam
Holland America Line,Ryndam
Holland America Line,Statendam
Holland America Line,Veendam
Holland America Line,Volendam
Holland America Line,Westerdam
Holland America Line,Zaandam
Holland America Line,Zuiderdam
Hurtigruten,Fram
Hurtigruten,Midnatsol
Hurtigruten,Nordkapp
Hurtigruten,Nordlys
Hurtigruten,Nordnorge
Ibero Cruises,Grand Celebration
Island Cruises,Island Escape
Island Ship,Macau Success
Japanese Cruises,Pacific Venus
Lindblad Expeditions,National Geographic Endeavour
Lindblad Expeditions,National Geographic Explorer
Louis Cruise Lines,Louis Olympia
Louis Cruise Lines,The Calypso
Louis Cruise Lines,The Emerald
Louis Cruise Lines,Thomson Celebration
Louis Cruise Lines,Thomson Dream
Louis Cruise Lines,Thomson Majesty
Louis Cruise Lines,Thomson Spirit
Louis Cruises,Orient Queen
Magna Carta Steamship Company Ltd,Lord of the Glens
Mano Maritime,Golden Iris
Matson Lines,SS Lurline (1931)
MSC Italian Cruises,Monterey
MSC Italian Cruises,MSC Armonia
MSC Italian Cruises,MSC Divina
MSC Italian Cruises,MSC Fantasia
MSC Italian Cruises,MSC Lirica
MSC Italian Cruises,MSC Magnifica
MSC Italian Cruises,MSC Melody
MSC Italian Cruises,MSC Musica
MSC Italian Cruises,MSC Opera
MSC Italian Cruises,MSC Orchestra
MSC Italian Cruises,MSC Poesia
MSC Italian Cruises,MSC Sinfonia
MSC Italian Cruises,MSC Splendida
Murmansk Shipping,Polaris
NCL America,Pride of America
New Century Cruise Lines,Leisure World
Nippon Yusen Kaisha,Asuka II
Noble Caledonia,Island Sky
Norwegian Cruise Line,Norwegian Bliss
Norwegian Cruise Line,Norwegian Breakaway
Norwegian Cruise Line,Norwegian Dawn
Norwegian Cruise Line,Norwegian Epic
Norwegian Cruise Line,Norwegian Escape
Norwegian Cruise Line,Norwegian Gem
Norwegian Cruise Line,Norwegian Getaway
Norwegian Cruise Line,Norwegian Jade
Norwegian Cruise Line,Norwegian Jewel
Norwegian Cruise Line,Norwegian Pearl
Norwegian Cruise Line,Norwegian Sky
Norwegian Cruise Line,Norwegian Spirit
Norwegian Cruise Line,Norwegian Star
Norwegian Cruise Line,Norwegian Sun
Ocean Dream Cruise ,MV Ocean Dream
Ocean Star Cruises,Ocean Star Pacific
Oceania Cruises,Insignia
Oceania Cruises,Marina
Oceania Cruises,Nautica
Oceania Cruises,Regatta
Oceania Cruises,Riviera
Ola Cruises,Ola Esmeralda
Orient Lines ,Marco Polo
Orion Expedition Cruises,Orion
P&O Cruises,Arcadia
P&O Cruises,Aurora
P&O Cruises,Azura
P&O Cruises,Britannia
P&O Cruises,Oceana
P&O Cruises,Oriana
P&O Cruises,Ventura
P&O Cruises Australia,Pacific Dawn
P&O Cruises Australia,Pacific Jewel
P&O Cruises Australia,Pacific Pearl
Palm Beach Casino Line,Palm Beach Princess
Peace Boat,Oceanic
Phoenix Reisen,Albatros
Phoenix Reisen,Amadea
Phoenix Reisen,Artania
Phoenix Reisen,
Phoenix Voyages,L'Amant
Plantours,Hamburg
Polaris Shipping,Harmony Princess
Ponant Cruises,L'Austral
Ponant Cruises,Le Boréal
Ponant Cruises,Le Diamant
Ponant Cruises,Le Levant
Ponant Cruises,Le Ponant
Portuscale Cruises,Porto
Poseidon Arctic Voyages,Yamal
Poseidon Expeditions,Sea Explorer
Premier Cruises,Serenissima
Premier Cruises,The Big Red Boat
Princess Cruise Lines,Emerald Princess
Princess Cruises,Caribbean Princess
Princess Cruises,Coral Princess
Princess Cruises,Crown Princess
Princess Cruises,Dawn Princess
Princess Cruises,Diamond Princess
Princess Cruises,Golden Princess
Princess Cruises,Grand Princess
Princess Cruises,Island Princess
Princess Cruises,Ocean Princess
Princess Cruises,Regal Princess
Princess Cruises,Royal Princess
Princess Cruises,Ruby Princess
Princess Cruises,Sapphire Princess
Princess Cruises,Sea Princess
Princess Cruises,Star Princess
Princess Cruises,Sun Princess
Princess Cruises ,Pacific Princess
Pullmantur Cruises,Empress
Pullmantur Cruises,Monarch
Pullmantur Cruises,Sovereign
Pullmantur Cruises,Zenith
Regent Seven Seas Cruises,Paul Gauguin
Regent Seven Seas Cruises,Seven Seas Mariner
Regent Seven Seas Cruises,Seven Seas Navigator
Regent Seven Seas Cruises,Seven Seas Voyager
ResidenSea,The World
Royal Caribbean,Allure of the Seas
Royal Caribbean,Brilliance of the Seas
Royal Caribbean Cruise Line,Oasis of the Seas
Royal Caribbean International,Adventure of the Seas
Royal Caribbean International,Enchantment of the Seas
Royal Caribbean International,Explorer of the Seas
Royal Caribbean International,Freedom of the Seas
Royal Caribbean International,Grandeur of the Seas
Royal Caribbean International,Harmony of the Seas
Royal Caribbean International,Independence of the Seas
Royal Caribbean International,Jewel of the Seas
Royal Caribbean International,Legend of the Seas
Royal Caribbean International,Liberty of the Seas
Royal Caribbean International,Majesty of the Seas
Royal Caribbean International,Mariner of the Seas
Royal Caribbean International,Navigator of the Seas
Royal Caribbean International,Quantum of the Seas
Royal Caribbean International,Radiance of the Seas
Royal Caribbean International,Rhapsody of the Seas
Royal Caribbean International,Serenade of the Seas
Royal Caribbean International,Splendour of the Seas
Royal Caribbean International,Vision of the Seas
Royal Caribbean International,Voyager of the Seas
Royal Olympic Cruises,SS Stella Solaris
Saga Cruises,Saga Ruby
Saga Cruises,Saga Sapphire
Saga Cruises,Sagafjord
Saga Cruises,Spirit of Adventure
Sail Windjammer,Mandalay
Saimaan Matkaverkko Ltd,Brahe
Sea Cloud Cruises,Sea Cloud
Sea Cloud Cruises,Sea Cloud II
Seabourn Cruise Line,Seabourn Odyssey
Seabourn Cruise Line,Seabourn Quest
Seabourn Cruise Line,Seabourn Sojourn
Seabourn Cruise Line,Seabourn Spirit
SeaDream Yacht Club,SeaDream I
SeaDream Yacht Club,SeaDream II
Semester at Sea,World Odyssey
Silversea Cruises,Silver Cloud
Silversea Cruises,Silver Explorer
Silversea Cruises,Silver Shadow
Silversea Cruises,Silver Spirit
Silversea Cruises,Silver Whisper
Silversea Cruises,Silver Wind
Star Clippers,Royal Clipper
Star Clippers,Star Clipper
Star Clippers,Star Flyer
Star Cruises,Gemini
Star Cruises,Henna
Star Cruises,Star Pisces
Star Cruises,SuperStar Aquarius
Star Cruises,SuperStar Gemini
Star Cruises,SuperStar Libra
Star Cruises,SuperStar Virgo
Steamship Company Bore,Bore
Swan Hellenic,Minerva
Travelscope,Van Gogh
TUI Cruise,TUI Discovery
TUI Cruises,Mein Schiff 1
TUI Cruises,Mein Schiff 2
TUI Cruises,Mein Schiff 3
TUI Cruises,Mein Schiff 4
TUI Cruises,Mein Schiff 5
Various,Aurora Star
Various,Empress Star
Various,Pacific Star
Viking Ocean Cruises,Viking Sea
Viking Ocean Cruises,Viking Sky
Viking Ocean Cruises,Viking Star
Voyages of Discovery,Discovery
Voyages of Discovery,Voyager
Voyages to Antiquity,Aegean Odyssey
Windjammer Barefoot Cruises,Yankee Clipper
Windstar Cruises,Star Breeze
Windstar Cruises,Star Legend
Windstar Cruises,Star Pride
Windstar Cruises,Wind Spirit
Windstar Cruises,Wind Star
Windstar Cruises,Wind Surf
