Country,State,City,Zip Code,Airport Name,FAA Code,Category
United States,California ,Adin,,Adin Airport,A25,FBO
United State+3:162s,California ,Adin,,Adin Airport,A26,FBO
United States,California ,Agua Caliente Springs,,Agua Caliente Springs Airport,L54,FBO
United States,California ,Agua Dulce,,Agua Dulce Airport,L70,FBO
United States,California ,Alturas,,Alturas Municipal Airport,KAAT,FBO
United States,California ,Alturas,,California Pines Airport,A24,FBO
United States,California ,Angwin,,Angwin Airport-Parrett Field,2O3,FBO
United States,California ,Apple Valley,,Apple Valley Airport,KAPV,FBO
United States,California ,Atwater,,Castle Airport,KMER,FBO
United States,California ,Auburn,,Auburn Municipal Airport,KAUN,FBO
United States,California ,Avalon,,Catalina Airport,KAVX,FBO
United States,California ,Baker,,Baker Airport,0O2,FBO
United States,California ,Bakersfield,,Bakersfield Municipal Airport,L45,FBO
United States,California ,Banning,,Banning Municipal Airport,KBNG,FBO
United States,California ,Beckwourth,,Nervino Airport,O02,FBO
United States,California ,Bieber,,Southard Field Airport,O55,FBO
United States,California ,Big Bear City,,Big Bear City Airport,L35,FBO
United States,California ,Bishop,,Bishop Airport,KBIH,FBO
United States,California ,Blythe,,Blythe Airport,KBLH,FBO
United States,California ,Boonville,,Boonville Airport,D83,FBO
United States,California ,Borrego Springs,,Borrego Valley Airport,L08,FBO
United States,California ,Brawley,,Brawley Municipal Airport,KBWC,FBO
United States,California ,Bridgeport,,Bryant Field Airport,O57,FBO
United States,California ,Buttonwillow,,Elk Hills-Buttonwillow Airport,L62,FBO
United States,California ,Byron,,Byron Airport,C83,FBO
United States,California ,Calexico,,Calexico International Airport,KCXL,FBO
United States,California ,California City,,California City Municipal Airport,L71,FBO
United States,California ,Calipatria,,Cliff Hatfield Memorial Airport,KCLR,FBO
United States,California ,Camarillo,,Camarillo Airport,KCMA,FBO
United States,California ,Cameron Park,,Cameron Airpark,O61,FBO
United States,California ,Cedarville,,Cedarville Airport,O59,FBO
United States,California ,Chemehuevi Valley,,Chemehuevi Valley Airport,49X,FBO
United States,California ,Chester,,Rogers Field Airport,O05,FBO
United States,California ,Chino,,Chino Airport,KCNO,FBO
United States,California ,Chiriaco Summit,,Chiriaco Summit Airport,L77,FBO
United States,California ,Chowchilla,,Chowchilla Airport,2O6,FBO
United States,California ,Cloverdale,,Cloverdale Municipal Airport,O60,FBO
United States,California ,Coalinga,,Harris Ranch Airport,3O8,FBO
United States,California ,Coalinga,,New Coalinga Municipal Airport,C80,FBO
United States,California ,Columbia,,Columbia Airport,O22,FBO
United States,California ,Colusa,,Colusa County Airport,O08,FBO
United States,California ,Compton,,Compton/Woodley Airport,KCPM,FBO
United States,California ,Concord,,Buchanan Field Airport,KCCR,FBO
United States,California ,Corning,,Corning Municipal Airport,0O4,FBO
United States,California ,Corona,,Corona Municipal Airport,KAJO,FBO
United States,California ,Covelo,,Round Valley Airport,O09,FBO
United States,California ,Daggett,,Barstow-Daggett Airport,KDAG,FBO
United States,California ,Davis,,University Airport,KEDU,FBO
United States,California ,Davis/Woodland/Winters,,Yolo County Airport,KDWA,FBO
United States,California ,Death Valley National Park,,Furnace Creek Airport,L06,FBO
United States,California ,Death Valley National Park,,Stovepipe Wells Airport,L09,FBO
United States,California ,Delano,,Delano Municipal Airport,KDLO,FBO
United States,California ,Dinsmore,,Dinsmore Airport,D63,FBO
United States,California ,Dorris,,Butte Valley Airport,A32,FBO
United States,California ,Dunsmuir,,Dunsmuir Municipal-Mott Airport,1O6,FBO
United States,California ,El Monte,,El Monte Airport,KEMT,FBO
United States,California ,Emigrant Gap,,Blue Canyon - Nyack Airport,KBLU,FBO
United States,California ,Eureka,,Murray Field Airport,KEKA,FBO
United States,California ,Eureka,,Samoa Field Airport,O33,FBO
United States,California ,Eureka,,Kneeland Airport,O19,FBO
United States,California ,Exeter,,Exeter Airport,O63,FBO
United States,California ,Fall River Mills,,Fall River Mills Airport,O89,FBO
United States,California ,Fallbrook,,Fallbrook Community Airpark,L18,FBO
United States,California ,Famoso,,Poso-Kern County Airport,L73,FBO
United States,California ,Firebaugh,,Firebaugh Airport,F34,FBO
United States,California ,Fort Bidwell,,Fort Bidwell Airport,A28,FBO
United States,California ,Fort Jones,,Scott Valley Airport,A30,FBO
United States,California ,Fortuna,,Rohnerville Airport,KFOT,FBO
United States,California ,Franklin,,Franklin Field Airport,F72,FBO
United States,California ,Fresno,,Fresno Chandler Executive Airport,KFCH,FBO
United States,California ,Fresno,,Sierra Sky Park Airport,E79,FBO
United States,California ,Fullerton,,Fullerton Municipal Airport,KFUL,FBO
United States,California ,Garberville,,Garberville Airport,O16,FBO
United States,California ,Gasquet,,Ward Field Airport,0O9,FBO
United States,California ,Georgetown,,Georgetown Airport,E36,FBO
United States,California ,Grass Valley,,Nevada County Air Park,KGOO,FBO
United States,California ,Groveland,,Pine Mountain Lake Airport,E45,FBO
United States,California ,Gualala,,Ocean Ridge Airport,E55,FBO
United States,California ,Gustine,,Gustine Airport,3O1,FBO
United States,California ,Half Moon Bay,,Half Moon Bay Airport,KHAF,FBO
United States,California ,Hanford,,Hanford Municipal Airport,KHJO,FBO
United States,California ,Happy Camp,,Happy Camp Airport,36S,FBO
United States,California ,Hawthorne,,Jack Northrop Field/Hawthorne Municipal Airport,KHHR,FBO
United States,California ,Hayfork,,Hayfork Airport,F62,FBO
United States,California ,Hayward,,Hayward Executive Airport,KHWD,FBO
United States,California ,Healdsburg,,Healdsburg Municipal Airport,KHES,FBO
United States,California ,Hemet,,Hemet-Ryan Airport,KHMT,FBO
United States,California ,Herlong,,Herlong Airport,H37,FBO
United States,California ,Hesperia,,Hesperia Airport,L26,FBO
United States,California ,Hollister,,Hollister Municipal Airport,KCVH,FBO
United States,California ,Hollister,,Frazier Lake Airpark,1C9,FBO
United States,California ,Holtville,,Holtville Airport,L04,FBO
United States,California ,Hoopa,,Hoopa Airport,O21,FBO
United States,California ,Hyampom,,Hyampom Airport,H47,FBO
United States,California ,Imperial,,Imperial County Airport,KIPL,FBO
United States,California ,Independence,,Independence Airport,2O7,FBO
United States,California ,Inyokern,,Inyokern Airport,KIYK,FBO
United States,California ,Jackson,,Westover Field / Amador County Airport,KJAQ,FBO
United States,California ,Jacumba,,Jacumba Airport,L78,FBO
United States,California ,Kernville,,Kern Valley Airport,L05,FBO
United States,California ,King City,,Mesa Del Rey Airport,KKIC,FBO
United States,California ,Klamath Glen,,Andy Mc Beth Airport,S51,FBO
United States,California ,La Verne,,Brackett Field Airport,KPOC,FBO
United States,California ,Lakeport,,Lampson Field Airport,1O2,FBO
United States,California ,Lancaster,,General Wm J Fox Airfield,KWJF,FBO
United States,California ,Lee Vining,,Lee Vining Airport,O24,FBO
United States,California ,Lincoln,,Lincoln Regional Airport/Karl Harder Field,KLHM,FBO
United States,California ,Little River,,Little River Airport,KLLR,FBO
United States,California ,Livermore,,Livermore Municipal Airport,KLVK,FBO
United States,California ,Lodi,,Lodi Airport,1O3,FBO
United States,California ,Lodi,,Kingdon Airpark,O20,FBO
United States,California ,Lodi,,Lodi Airpark,L53,FBO
United States,California ,Lompoc,,Lompoc Airport,KLPC,FBO
United States,California ,Lone Pine,,Lone Pine Airport,O26,FBO
United States,California ,Los Angeles,,Whiteman Airport,KWHP,FBO
United States,California ,Los Banos,,Los Banos Municipal Airport,KLSN,FBO
United States,California ,Lost Hills,,Lost Hills-Kern County Airport,L84,FBO
United States,California ,Madera,,Madera Municipal Airport,KMAE,FBO
United States,California ,Marina,,Marina Municipal Airport,KOAR,FBO
United States,California ,Mariposa,,Mariposa-Yosemite Airport,KMPI,FBO
United States,California ,Markleeville,,Alpine County Airport,M45,FBO
United States,California ,Marysville,,Yuba County Airport,KMYV,FBO
United States,California ,Mendota,,William Robert Johnston Municipal Airport,M90,FBO
United States,California ,Merced,,Merced Regional Airport/Macready Field,KMCE,FBO
United States,California ,Mojave,,Mojave Air and Space Port,KMHV,FBO
United States,California ,Montague,,Siskiyou County Airport,KSIY,FBO
United States,California ,Montague,,Montague Airport-Yreka Rohrer Field,1O5,FBO
United States,California ,Murrieta/Temecula,,French Valley Airport,F70,FBO
United States,California ,Napa,,Napa County Airport,KAPC,FBO
United States,California ,Needles,,Needles Airport,KEED,FBO
United States,California ,New Cuyama,,New Cuyama Airport,L88,FBO
United States,California ,Novato,,Gnoss Field Airport,KDVO,FBO
United States,California ,Oakdale,,Oakdale Airport,O27,FBO
United States,California ,Oceano,,Oceano County Airport,L52,FBO
United States,California ,Oceanside,,Bob Maxwell Memorial Airfield,KOKB,FBO
United States,California ,Ocotillo Wells,,Ocotillo Airport,L90,FBO
United States,California ,Orland,,Haigh Field Airport,O37,FBO
United States,California ,Oroville,,Oroville Municipal Airport,KOVE,FBO
United States,California ,Oxnard,,Oxnard Airport,KOXR,FBO
United States,California ,Palm Springs,,Jacqueline Cochran Regional Airport,KTRM,FBO
United States,California ,Palm Springs,,Bermuda Dunes Airport,KUDD,FBO
United States,California ,Palmdale,,Palmdale USAF Plant 42 Airport,KPMD,FBO
United States,California ,Palo Alto,,Palo Alto Airport,KPAO,FBO
United States,California ,Paso Robles,,Paso Robles Municipal Airport,KPRB,FBO
United States,California ,Perris,,Perris Valley Airport,L65,FBO
United States,California ,Petaluma,,Petaluma Municipal Airport,O69,FBO
United States,California ,Placerville,,Placerville Airport,KPVF,FBO
United States,California ,Porterville,,Porterville Municipal Airport,KPTV,FBO
United States,California ,Quincy,,Gansner Field Airport,2O1,FBO
United States,California ,Ramona,,Ramona Airport,KRNM,FBO
United States,California ,Rancho Murieta,,Rancho Murieta Airport,KRIU,FBO
United States,California ,Ravendale,,Ravendale Airport,O39,FBO
United States,California ,Red Bluff,,Red Bluff Municipal Airport,KRBL,FBO
United States,California ,Redding,,Benton Field Airport,O85,FBO
United States,California ,Redlands,,Redlands Municipal Airport,KREI,FBO
United States,California ,Reedley,,Reedley Municipal Airport,O32,FBO
United States,California ,Rio Linda,,Rio Linda Airport,L36,FBO
United States,California ,Rio Vista,,Rio Vista Municipal Airport,O88,FBO
United States,California ,Riverside,,Riverside Municipal Airport,KRAL,FBO
United States,California ,Riverside,,March Air Reserve Base,KRIV,FBO
United States,California ,Riverside/Rubidoux,,Flabob Airport,KRIR,FBO
United States,California ,Rosamond,,Rosamond Skypark Airport,L00,FBO
United States,California ,Ruth,,Ruth Airport,T42,FBO
United States,California ,Sacramento,,Sacramento Executive Airport,KSAC,FBO
United States,California ,Sacramento,,Sacramento Mather Airport,KMHR,FBO
United States,California ,Sacramento,,Mc Clellan Airfield,KMCC,FBO
United States,California ,Salinas,,Salinas Municipal Airport,KSNS,FBO
United States,California ,Salton City,,Salton Sea Airport,KSAS,FBO
United States,California ,San Andreas,,Calaveras County Airport - Maury Rasmussen Field,KCPU,FBO
United States,California ,San Bernardino,,San Bernardino International Airport,KSBD,FBO
United States,California ,San Carlos,,San Carlos Airport,KSQL,FBO
United States,California ,San Diego,,Montgomery Field Airport,KMYF,FBO
United States,California ,San Diego,,Brown Field Municipal Airport,KSDM,FBO
United States,California ,San Diego/El Cajon,,Gillespie Field Airport,KSEE,FBO
United States,California ,San Jose,,Reid-Hillview Airport of Santa Clara County,KRHV,FBO
United States,California ,San Martin,,San Martin Airport,E16,FBO
United States,California ,Santa Monica,,Santa Monica Municipal Airport,KSMO,FBO
United States,California ,Santa Paula,,Santa Paula Airport,KSZP,FBO
United States,California ,Santa Ynez,,Santa Ynez Airport,KIZA,FBO
United States,California ,Schellville/Sonoma,,Sonoma Valley Airport,0Q3,FBO
United States,California ,Selma,,Selma Airport,0Q4,FBO
United States,California ,Shafter,,Shafter Airport-Minter Field,KMIT,FBO
United States,California ,Shelter Cove,,Shelter Cove Airport,0Q5,FBO
United States,California ,Shoshone,,Shoshone Airport,L61,FBO
United States,California ,Sierraville,,Sierraville Dearwater Airport,O79,FBO
United States,California ,Sonoma,,Sonoma Skypark Airport,0Q9,FBO
United States,California ,South Lake Tahoe,,Lake Tahoe Airport,KTVL,FBO
United States,California ,Strathmore,,Eckert Field Airport,1Q1,FBO
United States,California ,Susanville,,Susanville Municipal Airport,KSVE,FBO
United States,California ,Susanville,,Spaulding Airport,1Q2,FBO
United States,California ,Taft,,Taft-Kern County Airport,L17,FBO
United States,California ,Tehachapi,,Tehachapi Municipal Airport,KTSP,FBO
United States,California ,Tehachapi,,Mountain Valley Airport,L94,FBO
United States,California ,Torrance,,Zamperini Field Airport,KTOA,FBO
United States,California ,Tracy,,Tracy Municipal Airport,KTCY,FBO
United States,California ,Tracy,,New Jerusalem Airport,1Q4,FBO
United States,California ,Trinity Center,,Trinity Center Airport,O86,FBO
United States,California ,Trona,,Trona Airport,L72,FBO
United States,California ,Truckee,,Truckee-Tahoe Airport,KTRK,FBO
United States,California ,Tulare,,Mefford Field Airport,KTLR,FBO
United States,California ,Tulelake,,Tulelake Municipal Airport,O81,FBO
United States,California ,Turlock,,Turlock Municipal Airport,O15,FBO
United States,California ,Twentynine Palms,,Twentynine Palms Airport,KTNP,FBO
United States,California ,Ukiah,,Ukiah Municipal Airport,KUKI,FBO
United States,California ,Upland,,Cable Airport,KCCB,FBO
United States,California ,Upper Lake,,Gravelly Valley Airport,1Q5,FBO
United States,California ,Vacaville,,Nut Tree Airport,KVCB,FBO
United States,California ,Van Nuys,,Van Nuys Airport,KVNY,FBO
United States,California ,Victorville,,Southern California Logistics Airport,KVCV,FBO
United States,California ,Visalia,,Visalia Municipal Airport,KVIS,FBO
United States,California ,Visalia,,Sequoia Field Airport,D86,FBO
United States,California ,Wasco,,Wasco-Kern County Airport,L19,FBO
United States,California ,Watsonville,,Watsonville Municipal Airport,KWVI,FBO
United States,California ,Weaverville,,Lonnie Pool Field/Weaverville Airport,O54,FBO
United States,California ,Weed,,Weed Airport,O46,FBO
United States,California ,Willits,,Ells Field-Willits Municipal Airport,O28,FBO
United States,California ,Willows,,Willows-Glenn County Airport,KWLW,FBO
United States,California ,Woodlake,,Woodlake Airport,O42,FBO
United States,California ,Woodland,,Watts-Woodland Airport,O41,FBO
United States,California ,Yuba City,,Sutter County Airport,O52,FBO
United States,California ,Yucca Valley,,Yucca Valley Airport,L22,FBO
